{
  "new": [
    "identity approved",
    "identity rejected",
    "identity approved, needed review",
    "identity rejected, needed review"
  ],
  "identity approved": [
    "approved",
    "rejected"
  ],
  "identity rejected": [
    "new"
  ],
  "identity approved, needed review": [
    "identity approved",
    "new"
  ],
  "identity rejected, needed review": [
    "identity rejected",
    "new"
  ],
  "approved": [
    "rejected"
  ],
  "rejected": [
    "approved",
    ""
  ],
  "approved, needed review": [
    "approved",
    "identity approved"
  ],
  "rejected, needed review": [
    "rejected",
    "identity approved"
  ]
}
