{
    "English": "English",
    "Confidence": "Confidence",
    "done": "erledigt",
    "checkReport": "CHECK REPORT",
    "DataValidationErrorsFound": "Data validation errors found",
    "UploadAnotherFile": "Upload Another File",
    "SelectSourceType": "Select Source Type",
    "completed": "completed",
    "ScreeningCompletedNoErrors": "Screening completed successfully. No errors found.",
    "Or": "Or",
    "stage": "stage",
    "uploaded": "uploaded",
    "Warnings": "Warnings",
    "MaximumFileSize": "Maximum file size",
    "FileTypesAllowed": "File types allowed",
    "German": "German",
    "Options": "Options",
    "GenerateAlert": "Generate Alert",
    "EnableSuppression": "Enable Suppression",
    "DragAndDropFileHere": "Drag and Drop File Here",
    "File": "File",
    "All": "All",
    "Delete": "Delete",
    "Reset": "Reset",
    "NotRequired": "Not Required",
    "SetThisView": "Set this view as default",
    "Sucess": "Sucess",
    "Declined": "Declined",
    "TheEntityNotIdentifiedYet": "The entity is not identified yet",
    "confidenceLevelFilter": "Confidence Level Filter",
    "WatchlistInformation": "Watchlist Information",
    "matchInformation": "Match Information",
    "EntityInformation": "Entity Information",
    "available": "available",
    "MatchType": "Match Type",
    "ShowMatchType": "Show Match Type",
    "reviewAttributesChooseRightEntity": "Please review the attributes and choose which entity is right",
    "ActiveSources": "Active Sources",
    "FailedSources": "Failed Sources",
    "Approve": "Approve",
    "RejectAll": "Reject All",
    "ColumnChanged": "Column Changed",
    "ChangeLevel": "Change Level",
    "Next": "Next",
    "TableViewName": "Table View Name",
    "AlertsList": "Alerts List",
    "RegisteredAddressSources": "Registered Address Sources",
    "RegisteredVAT/TINSources": "Registered VAT/TIN Sources",
    "RegisteredCompanyStatusSources": "Registered Company Status Sources",
    "RegisteredAliasNameSources": "Registered Alias Name Sources",
    "RegisteredstreetAddressSources": "Registered street Address Sources",
    "RegisteredCitySources": "Registered City Sources",
    "RegisteredPostalCodeSources": "Registered Postal Code Sources",
    "RegisteredCountrySources": "Registered Country Sources",
    "RegisteredIndustry-TypeSources": "Registered Industry-Type Sources",
    "RegisteredLegalTypeSources": "RegisteredLegalTypeSources",
    "RegisteredStockExchangeSources": "Registered Stock Exchange Sources",
    "RegisteredStockTickerInSources": "Registered Stock Ticker In Sources",
    "RegisteredDateofIncorporationSources": "Registered Date of Incorporation Sources",
    "RegisteredIPODateSources": "Registered IPO Date Sources",
    "RegisteredPhoneNumberSources": "Registered Phone Number Sources",
    "RegisteredFaxNumberSources": "Registered Fax Number Sources",
    "RegisteredHeadquaterPhoneNumberSources": "Registered Headquater Phone Number Sources",
    "RegisteredHeadquartersFaxNumberSources": "Registered Headquarters Fax Number Sources",
    "RegisteredDomiciledInSources": "Registered Domiciled In Sources",
    "RegisteredWebsiteInSources": "Registered Website In Sources",
    "RegisteredRegulationStatusInSources": "Registered Regulation Status In Sources",
    "RegisteredRegulationStatusEffectiveDateInSources": "Registered Regulation Status Effective Date In Sources",
    "RegisteredLEISources": "Registered LEI Sources",
    "RegisteredTrade/CommerceSources": "Registered Trade/Commerce Sources",
    "RegisteredInternationalSecuritiesIdentificationNumberSources": "Registered International Securities Identification Number Sources",
    "RegisteredBIC/SwiftCodesSources": "Registered BIC/Swift Codes Sources",
    "Discover": "Discover",
    "FeedList": "Feed List",
    "shares": "Anteile",
    "casesLinked": "Fälle verknüpft",
    "QueueManagement": "Queue Management",
    "SourceManagement": "Source Management",
    "SourcesMonitoring": "Sources Monitoring",
    "SystemMonitoring": "System Monitoring",
    "QuitEditingMode": "Quit Editing Mode",
    "ConfirmBulkAction": "Confirm Bulk Action",
    "Confirm": "Confirm",
    "WillEffectAlert": "This action will effect",
    "SureContinue": "Are you sure want to continue?",
    "WillNotEffectAlert": "This action will not effect any alert",
    "SetStatus": "set Status",
    "Previous": "Previous",
    "AssignToMe": "Assign To Me",
    "AssignForAllFeeds": "Assign For All Feeds",
    "AssignFor": "Assign For",
    "Selected": "Selected",
    "RiskFactors": "Risk Factors",
    "Alerts": "Alerts",
    "User": "User",
    "ReviewRequired": "Review Required",
    "ReviewFor": "Review For",
    "DoNotRequireReview": "Do Not Require Review",
    "pageNotFound": "currently, page not found",
    "ResetToDefault": "Reset To Default",
    "ActiveUsers": "Active Users",
    "Roles": "Roles",
    "Select": "Select",
    "TextLength": "Text length should not be more than 100",
    "Groups": "Groups",
    "Policies": "Policies",
    "SeeDetails": "See Details",
    "UserStatus": "User Status",
    "LogonUsersByHourOfDay": "Logon Users By Hour Of Day",
    "LogonFailures": "Logon Failures",
    "TopUserLogonFailures": "Top User Logon Failures",
    "AlertManagement": "Alert Management",
    "FeedManagement": "Feed Management",
    "ExportTable": "Export Table",
    "ExportData": "Export Data",
    "MyAlerts": "My Alerts",
    "AssociatedAlerts": "Associated Alerts",
    "AlertsPastDue": "Alerts Past Due",
    "OriginalView": "Original View",
    "CreateNewView": "Create New View",
    "Rowsperpage": "Rows per page",
    "Page": "Page",
    "AlertId": "Alert Id",
    "CustomerId": "Customer Id",
    "WLId": "WL Id",
    "EntityName": "Entity Name",
    "ConfidenceLevel": "Confidence level",
    "Created": "Created",
    "Feed": "Feed",
    "GroupLevel": "Group Level",
    "Assignee": "Assignee",
    "Status": "Status",
    "Indicators": "Indicators",
    "Comments": "Comments",
    "Watchlist": "Watchlist",
    "Attribute": "Attribute",
    "RecordInformation": "Record Information",
    "MatchInformation": "Match Information",
    "FirstName": "First Name",
    "lastName": "last Name",
    "Gender": "Gender",
    "RegisteredAddress": "Registered Address",
    "PostalCode": "Postal Code",
    "Country": "Country",
    "Occupation": "Occupation",
    "PoliticalParties": "Political Parties",
    "High": "High",
    "Medium": "Medium",
    "Low": "Low",
    "Unconfirmed": "Unconfirmed",
    "Confirmed": "Confirmed",
    "Decline": "Decline",
    "AlertsAuditing": "Alerts Auditing",
    "Search": "Search",
    "Open": "Open",
    "Investigation": "Investigation",
    "AwaitingAdditionalInfo": "Awaiting Additional Info",
    "FalsePositive": "FalsePositive",
    "TrueMatch": "True Match",
    "CustomerDecline": "Customer Decline",
    "TestGroup1": "Test Group1",
    "TestGroup2": "Test Group2",
    "TestGroup4": "Test Group4",
    "EqualsLastWeek": "Equals LastWeek",
    "LastLogin": "Last Login",
    "Profile": "Profile",
    "Settings": "Settings",
    "MyPreferencess": "My Preferencess",
    "Manage": "Manage",
    "LogOut": "LogOut",
    "UnSelectAll": "UnSelectAll",
    "FeedName": "Feed Name",
    "Color": "Color",
    "Type": "Type",
    "Source": "Source",
    "AssignedAlerts": "Assigned Alerts",
    "GroupLevels": "Group Levels",
    "History": "History",
    "FeedAuditing": "Feed Auditing",
    "FeedId": "Feed Id",
    "SourcesStatus": "Sources Status",
    "NumberOfErrors": "Number Of Errors",
    "MapIndicator": "Map Indicator",
    "Expand": "Expand",
    "errors": "errors",
    "morethan100sources": "more than 100 sources",
    "50-100sources": "50-100 sources",
    "lessthan50sources": "less than 50 sources",
    "nosources": "no sources",
    "URL": "URL",
    "Jurisdiction": "Jurisdiction",
    "Category": "Category",
    "LastUpdate": "Last Update",
    "ResponseTime": "Response Time",
    "SetSearchCriteria": "Set Search Criteria",
    "SavedSearches": "Saved Searches",
    "NoSavedSearchesFound": "No Saved Searches Found",
    "RecentSearches": "Recent Searches",
    "EntityTypes": "Entity Types",
    "Domain": "Domain",
    "Company": "Company",
    "Person": "Person",
    "CompanyName": "Company Name",
    "Jurisdictions": "Jurisdictions",
    "Jurisdictionsname": "Jurisdictions name",
    "Website": "Website",
    "FoundedYear": "Founded Year",
    "Industry": "Industry",
    "Headquarter": "Headquarter",
    "MobileNumber": "Mobile Number",
    "CompanyFounded": "Company Founded",
    "Phone": "Phone",
    "Update": "Update",
    "Cancel": "Cancel",
    "General": "General",
    "FinancialCrime": "Financial Crime",
    "Cyber": "Cyber",
    "Compliance": "Compliance",
    "MarketIntelligence": "Market Intelligence",
    "AddMore": "Add More",
    "SourceTypes": "Source Types",
    "Location": "Location",
    "Rules": "Rules",
    "Case": "Case",
    "Account": "Account",
    "Personalidentifier": "Personal identifier",
    "FullName": "Full Name",
    "Email": "Email",
    "Norecentsearchesfound": "No recent searches found",
    "PleaseSelectSourcesFromTheMenu": "Please Select Sources From The Menu",
    "Onboarding": "Onboarding",
    "RiskScore": "Risk Score",
    "PEPAlerts": "PEP Alerts",
    "Sanctions": "Sanctions",
    "FinanceCrime": "Finance Crime",
    "News": "News",
    "CompanyInformation": "Company Information",
    "CompanyDetails": "Company Details",
    "CompanyIdentifiers": "Company Identifiers",
    "OwnershipConfigurations": "Ownership Configurations",
    "ShowSubsidaries": "Show Subsidaries",
    "RiskAssesment": "Risk Assesment",
    "OwnershipControlPercentage": "Ownership Control Percentage",
    "SubsidiariesFilters": "Subsidiaries Filters",
    "Min": "Min",
    "Max": "Max",
    "MaxNumberOfLevels(Depth)": "Max Number Of Levels (Depth)",
    "Show": "Show",
    "SubsidiariesForEachCompany": "Subsidiaries For Each Company",
    "Apply": "Apply",
    "OwnershipStructure": "Ownership Structure",
    "Ubo": "Ubo",
    "Holding/Parent": "Holding/Parent",
    "ScreeningConfigurations": "Screening Configurations",
    "PEPAlertsConfidenceLevel": "PEP Alerts Confidence Level",
    "SanctionsConfidenceLevel": "Sanctions Confidence Level",
    "NewsPeriod(Years)": "News Period (Years)",
    "ScreeningCandidates": "Screening Candidates",
    "TotalEntities": "Total Entities",
    "ScreenedEntities": "Screened Entities",
    "IdentifiedRisks": "Identified Risks",
    "Name": "Name",
    "Role": "Role",
    "Residence": "Residence",
    "DateOfBirth": "Date Of Birth",
    "Classification": "Classification",
    "countriesofoperation": "Countries of Operation",
    "TotalCountries": "Total Countries",
    "HighRisk": "High Risk",
    "RiskRate": "Risk Rate",
    "NotACountryOfOperation": "Not a Country of Operation",
    "AssociatedDocuments": "Associated Documents",
    "TotalDocuments": "Total Documents",
    "GenerateReport": "Generate Report",
    "Checklist": "Checklist",
    "Sources": "Sources",
    "SourceScreenshot": "Source Screenshot",
    "AddMedia": "Add Media",
    "Note": "Note",
    "Upload": "upload",
    "MyStickyNotes": "My Sticky Notes",
    "MyUploadedDocument": "My Uploaded Document",
    "MyEvidenceSection": "My Evidence Section",
    "ComplexStructure": "Complex Structure",
    "EditEntityForScreening": "Edit Entity For Screening",
    "NumberOfShares": "Number Of Shares",
    "CountryName": "Country Name",
    "SourceUrl": "Source Url",
    "EntityType": "Entity Type",
    "DirectOwnership": "Direct Ownership",
    "IndirectOwnership": "Indirect Ownership",
    "PublishedDate": "Published Date",
    "List-By": "List-By",
    "PleaseEnterTitle": "Please Enter Title",
    "TitleIsRequired": "Title Is Required",
    "Save": "Save",
    "Display": "Display",
    "Icons": "Icons",
    "Table": "Table",
    "CompanyStatus": "Company Status",
    "AliasName": "Alias Name",
    "StreetAddress": "Street Address",
    "City": "City",
    "Industry-Type": "Industry-Type",
    "LegalType": "Legal Type",
    "StockExchange": "Stock Exchange",
    "StockTicker": "Stock Ticker",
    "DateofIncorporation": "Date of Incorporation",
    "IPODate": "IPO Date",
    "RegisteredPhoneNumber": "Registered Phone Number",
    "RegisteredFaxNumber": "Registered Fax Number",
    "HeadquaterPhoneNumber": "Headquater Phone Number",
    "HeadquartersFaxNumber": "Headquarters Fax Number",
    "DomiciledIn": "Domiciled In",
    "RegulationStatus": "Regulation Status",
    "RegulationStatusEffectiveDate": "Regulation Status Effective Date",
    "VAT/TIN": "VAT/TIN",
    "LEI": "LEI",
    "Trade/Commerce": "Trade/Commerce",
    "InternationalSecuritiesIdentificationNumber": "International Securities Identification Number",
    "BIC/SwiftCodes": "BIC / Swift Codes",
    "AddPerson/Company": "Add Person/Company",
    "AddPerson": "Add Person",
    "AddCompany": "Add Company",
    "Add": "Add",
    "Keywords": "Keywords",
    "DeletingTheEntityMayRemoveRelatedEntitiesAsWellFromScreeningResults,DoYouWishToContinue": "Deleting The Entity May Remove Related Entities As Well From Screening Results, Do You Wish To Continue",
    "Ok": "Ok",
    "MarketCapital": "Market Capital",
    "StockHistory": "Stock History",
    "NetCashFlow-OperatingActivities": "Net Cash Flow - Operating Activities",
    "BalanceSheet": "Balance Sheet",
    "IncomeStatement": "Income Statement",
    "TopHolders": "Top Holders",
    "ShareHolderNetwork": "Share Holder Network",
    "TotalRevenuesVsYear": "Total Revenues Vs Year",
    "ShareholdersType": "Shareholders Type",
    "Individual": "Individual",
    "Funds": "Funds",
    "Institution": "Institution",
    "DR": "DR",
    "TR": "TR",
    "IR": "IR",
    "Currency": "Currency",
    "Yes": "Yes",
    "No": "No",
    "PrioritizeInformation": "Prioritize information from a source for each category",
    "SocialMediaMentions": "Social Media Mentions",
    "PressReleases": "Press Releases",
    "RecentEvents": "Recent Events",
    "OverallSentiment": "Overall Sentiment",
    "Negative": "Negative",
    "Neutral": "Neutral",
    "Positive": "Positive",
    "LatestNews": "Latest News",
    "RelationshipChartsByNews": "Relationship Charts By News",
    "GeneralSentiments": "General Sentiments",
    "PopularTags": "Popular Tags",
    "NewsLocations": "News Locations",
    "Areyousuredeleteentity?": "Are you sure you wish to delete the following entity?",
    "KeyExecutives": "Key Executives",
    "BoardOfDirectors": "Board Of Directors",
    "AuditCommit": "Audit Commit",
    "Committee": "Committee",
    "PeopleAlsoVisited": "People Also Visited",
    "NearByCompanies": "Near By Companies",
    "CompanyMembers": "Company Members",
    "PositiveBusinessOutlook": "Positive Business Outlook",
    "AssociatedPersons": "Associated Persons",
    "Memberships": "Memberships",
    "Ownerships": "Ownerships",
    "Transactions": "Transactions",
    "Donation": "Donation",
    "Hierarchy": "Hierarchy",
    "Lobbying": "Lobbying",
    "Position": "Position",
    "LeadershipClusters": "Leadership Clusters",
    "RatingTrend": "Rating Trend",
    "RecommendToaFriend": "Recommend To a Friend",
    "CeoApproval": "Ceo Approval",
    "TopInfluencers": "Top Influencers",
    "CareerOpportunities": "Career Opportunities",
    "Audit": "Audit",
    "Nominating": "Nominating",
    "CorporateGovernance": "Corporate Governance",
    "Compensation": "Compensation",
    "CompanyMemberships": "Company Memberships",
    "IncorporationDate": "Incorporation Date",
    "CountryOfOrigin": "Country Of Origin",
    "Founder": "Founder",
    "Founded": "Founded",
    "NatureOfBusiness": "Nature Of Business",
    "Revenue": "Revenue",
    "FaxNumber": "Fax Number",
    "DissolutionDate": "Dissolution Date",
    "BusinessType": "Business Type",
    "InLiquidation": "In Liquidation",
    "HasUkEstablishment": "Has Uk Establishment",
    "ReadMore": "Read More",
    "WhoAreWe": "Who Are We",
    "Leadership": "Leadership",
    "StockPerformance": "Stock Performance",
    "VisualLinkAnalysis": "Visual Link Analysis",
    "AssociatedCompanies": "Associated Companies",
    "CompanyOwners": "Company Owners",
    "ServicesTransactions": "Services Transactions",
    "ChildOrganizations": "Child Organizations",
    "Holdings": "Holdings",
    "DonationGrantRecipents": "Donation Grant Recipents",
    "RiskRatings": "Risk Ratings",
    "PEP": "PEP",
    "Fraud": "Fraud",
    "RelatedEntities": "Related Entities",
    "AssociatedLocations": "Associated Locations",
    "AssociatedIndustries": "Associated Industries",
    "DigitalFootprints": "Digital Footprints",
    "ContactAddress": "Contact Address",
    "HeadQuarters": "Head Quarters",
    "MoreInformation": "More Information",
    "CompanyProfile": "Company Profile",
    "CyberDetails": "Cyber Details",
    "Advancedsearch": "Advanced search",
    "Donation Grant Recipients": "Donation Grant Recipients",
    "DataNotFound": "Data Not Found",
    "SanctionsIfAny": "Sanctions If Any",
    "FraudAlerts": "Fraud Alerts",
    "CyberAlerts": "Cyber Alerts",
    "CriminalRecords": "Criminal Records",
    "DarkWebArticles": "Dark Web Articles",
    "AlertTimeline": "Alert Timeline",
    "DarkWeb": "Dark Web",
    "SanctionedList": "Sanctioned List",
    "PepRelationshipChart": "Pep Relationship Chart",
    "Supplier'sBlackList": "Supplier's Black List",
    "IndustrialSecurityIncidents": "Industrial Security Incidents",
    "PoliticalDonationsTrend": "Political Donations Trend",
    "PoliticalRatio": "Political Ratio",
    "RiskRatio": "Risk Ratio",
    "Interlocks": "Interlocks",
    "FBIDataList": "FBI Data List",
    "BadBuyer'sList": "Bad Buyer's List",
    "ScamList": "Scam List",
    "CrimeList(Imsaslic)": "Crime List(Imsaslic)",
    "SexOffendersList": "Sex Offenders List",
    "DeniedPersonList": "Denied Person List",
    "ExclusionDetails": "Exclusion Details",
    "CriteriaSearch": "Criteria Search",
    "FilterBy": "Filter By",
    "Edit": "Edit",
    "SourceName": "source name",
    "Section": "Section",
    "LastUpdated": "Last Updated",
    "ExecutionDateTime": "Execution date time",
    "DetailedInformation": "Detailed information",
    "ShowPage": "Show Page",
    "SourceId": "Source id",
    "SourceProject": "Source Project",
    "Success": "Success",
    "Close": "close",
    "Any": "ANY",
    "InternalServerError": "Internal Server Error",
    "SourceActivityTrend": "Source Activity Trend",
    "Error": "Error",
    "Auditing": "Auditing",
    "BulkAuditing": "Bulk Auditing",
    "UserAuditing": "User Auditing",
    "Running": "Running",
    "SourceTypesHere": "Source Types here",
    "OpenSource": "OPEN SOURCE",
    "OpenSourceHere": "Open Source here",
    "LocationHere": "Location here",
    "RulesHere": "Rules here",
    "CaseHere": "Case here",
    "NoRecentSearchesFound": "No recent searches found",
    "Loading": "Loading",
    "Results": "RESULTS",
    "FullAddress": "FULL ADDRESS",
    "Followers": "Followers",
    "Strength": "Strength",
    "CompanySize": "Company Size",
    "RegisteredNumber": "Registered Number",
    "Liquidated": "Liquidated",
    "CountryOfRegistration": "Country of registration",
    "CompanyType": "Company Type",
    "Shareholders": "Shareholders",
    "Subsidary": "Subsidary",
    "OriginalSource": "Original Source",
    "DocumentName": "DocumentName",
    "CountryOfBusiness": "Country Of Business",
    "bounceRate": "bounce Rate",
    "DailyTimeonSite": "Daily Time on Site",
    "GlobalRank": "Global Rank",
    "Pageviewspervisitor": "Page views per visitor",
    "Searchvisitspercent": "Search visits percent",
    "TrafficByCountries": "Traffic By Countries",
    "TrafficBySearch": "Traffic By Search",
    "KeyWords": "Key Words",
    "TrafficByDomain": "Traffic By Domain",
    "OtherDetails": "Other Details",
    "Primary": "Primary",
    "Secondary": "Secondary",
    "AdditionalDetails": "Additional Details",
    "Earlylife": "Early life",
    "PersonalLife": "Personal Life",
    "PoliticalViews": "Political Views",
    "Opinions": "Opinions",
    "Subsidies": "Subsidies",
    "Citizenship": "Citizenship",
    "ShowOnlyTop": "Nur Top anzeigen",
    "Subsidariesfromeachlevel": "Subsidaries from each level",
    "Ownershipcontrolpercentage": "Ownership control percentage",
    "JurisdictionRisk": "Jurisdiction Risk",
    "Entry": "Entry",
    "Entity": "Entity",
    "Matched": "Matched",
    "Sentiments": "Sentiments",
    "LastName": "Last Name",
    "Sourceisnotinthedirectory": "Source is not in the directory",
    "Entities Selected": "Entities Selected",
    "SelectAll": "SelectAll",
    "AddToPage": "Add To Page",
    "GetEvidence": "Get Evidence",
    "PleaseEnter": "Please Enter",
    "RequiredField": "Required Field",
    "Date": "Date",
    "MarkedAsSignificant": " marked as Significant",
    "pleaseAddaNote(required)": "please Add a Note(required)",
    "ReasonforInsignificant": "Reason for Insignificant",
    "Comment": "Comment",
    "NoPrimarySourceAvailable": "No Primary source available",
    "NoSecondarySourceAvailable": "No Secondary source available",
    "UserInput": "User Input",
    "OriginalAnswer": "Original Answer",
    "New": "New",
    "ChangedDate": "Changed date",
    "value": "value",
    "theField": "the Field",
    "Title": "Title",
    "Valid": "Valid",
    "MarkAsUBO": "Mark As UBO",
    "FileSize": "File size",
    "StickyNotes": "Sticky Notes",
    "Descending": "Descending",
    "Ascending": "Ascending",
    "SharedStickyNotes": "Shared Sticky Notes",
    "NoDocumentFound": "No Document Found",
    "Today": "Today",
    "MyClipboard": "My Clipboard",
    "Workflow": "Workflow",
    "Notifications": "Notifications",
    "Questionnaire": "Questionnaire",
    "UploadAdditionalDocuments": "Upload Additional Documents",
    "ProcessCompleted": "Process Completed",
    "CreateCustomChart": "Create Custom Chart",
    "Activate": "Activate",
    "Overview": "Overview",
    "Financial": "Financial",
    "SocialMedia": "Social Media",
    "Media": "Media",
    "RiskAlerts": "Risk Alerts",
    "URLAnalysis": "URL Analysis",
    "FormAnalysis": "Form Analysis",
    "ThreatsIntelligence": "Threats Intelligence",
    "YourApplication": "Your Application is under process",
    "Yourstatus": "Your status will be updated once each process has been successfully completed",
    "DeletingTheEntity?": "Deleting the entity may remove related entities as well from Screening Results, do you wish to continue?",
    "RemovingTheCustomizedView?": "Removing the customized view, will remove all related entities from Screening Results, do you wish to continue?",
    "ChangingTheScreeningResult?": "Changing the source will populate the Screening Results from new source information, do you wish to continue?",
    "Evidence": "Evidence",
    "FeedUpdatedSuccessfully": "Feed Updated Successfully",
    "FeedDeletedSuccessfully": "Feed Deleted Successfully",
    "FeedCreatedSuccessfully": "Feed Created Successfully",
    "SourceShouldNotBeEmpty": "Source Should Not Be Empty",
    "TypeShouldNotBeEmpty": "Type Should Not Be Empty",
    "Reviewer": "Reviewer",
    "Active": "Active",
    "InActive": "In Active",
    "Failed": "Failed",

    "ComplexStructureRequires?": "Complex Structure requires to get existence evidence for each Intermediate / Ultimate Legal Parents by showing search results for each entity, would you like to continue?",
    "OWNERSHIP STRUCTURE": "OWNERSHIP STRUCTURE",
    "COUNTRIES OF OPERATION": "COUNTRIES OF OPERATION",
    "ASSOCIATED DOCUMENTS": "ASSOCIATED DOCUMENTS",
    "Company Status": "Company Status",
    "Alias Name": "Alias Name",
    "Registered Address": "Registered Address",
    "Street Address": "Street Address",
    "Postal Code": "Postal Code",
    "Legal Type": "Legal Type",
    "Stock Exchange": "Stock Exchange",
    "Stock Ticker": "Stock Ticker",
    "Date of Incorporation": "Date of Incorporation",
    "IPO Date": "IPO Date",
    "Registered Phone Number": "Registered Phone Number",
    "Registered Fax Number": "Registrierte Faxnummer",
    "Headquater Phone Number": "Headquater Phone Number",
    "Headquarters Fax Number": "Headquarters Fax Number",
    "Regulation Status": "Regulation Status",
    "Regulation Status Effective Date": "Regulation Status Effective Date",
    "Domiciled In": "Domiciled In",
    "International Securities Identification Number": "International Securities Identification Number",
    "BIC / Swift Codes": "BIC / Swift Codes",
    "ORIGINAL": "ORIGINAL",
    "CUSTOMIZED": "CUSTOMIZED",
    "Unknown": "Unknown",
    "Total": "Total",
    "files": "files",
    "select_type": "select type",
    "enterSource": "Please Enter Source",
    "Invalidformat": "Invalid format",
    "Minimum4CharacterRequired": "Minimum 4 character required",
    "UploadDocument": "UPLOAD DOCUMENT",
    "Filescantbeuploaded": "Files cant be uploaded",
    "Upto": "up to",
    "Last": "Last",
    "NetworkAnalysis": "Network Analysis",
    "FileTitle": "File Title",
    "Password": "Password",
    "Password Recovery": "Password Recovery",
    "Sign In": "Sign In",
    "I remembered my password!": "I remembered my password!",
    "Reset Password": "Reset Password",
    "Email Address": "Email Address",
    "or": "or",
    "Username": "Username",
    "Email address": "Email address",
    "Forgot password?": "Forgot password?",
    "Intelligence of Everything": "Intelligence of Everything",
    "version": "version",
    "Username or Email address": "Username or Email address",
    "Username or Email Address": "Username or Email Address",
    "loginErrorMsg": "Sorry, We are unable to find the user with username and password provided.",
    "Token is missing": "Token is missing",
    "New Password": "New Password",
    "Confirm Password": "Confirm Password",
    "E-mail address has not been defined for the user.": "E-mail address has not been defined for the user.",
    "Users doesn`t exist": "Users doesn`t exist",
    "Check your email inbox for an email with the subject 'Reset your password'": "Check your email inbox for an email with the subject 'Reset your password'",
    "Could not send email, Please contact admin to configure mail settings": "Could not send email, Please contact admin to configure mail settings",
    "2-Step Verification": "2-Step Verification",
    "Back to Login": "Back to Login",
    "aMessageVerficationCode": "A message with a verfication code has been sent to your e-mail",
    "That email address isn't correct": "That email address isn't correct",
    "The email and password you entered don't match": "The email and password you entered don't match",
    "reviewerUpdatedSuccessfully": "reviewer Updated Successfully",
    "UpdatedSuccessfully": "Updated Successfully",
    "Run": "Run",
    "ChooseFile": "Choose File"
}