{
    "_request": "_accepted",
    "search_query": "",
    "_job_id": "1585647027.309134",
    "start_time": "2020-03-31 09:30:27.309116",
    "end_time": "2020-03-31 09:30:27.309339",
    "x-ray-id": "1585647027.309134",
    "results": [
        {
            "artifact": "fetchers.companyhousev2.companyhouse",
            "fetch_type": "screen-scrap",
            "source_name": "companyhouse.co.uk",
            "jurisdictions": [
                "GB"
            ],
            "apiurl": "https://pb0rytz224.execute-api.eu-west-1.amazonaws.com/Prod/v1/api-async?source=companyhouse.co.uk&query={query}",
            "api_base_url": "https://pb0rytz224.execute-api.eu-west-1.amazonaws.com/Prod/v1/api-async?source=companyhouse.co.uk",
            "lambda_name": "be-id-sources-dev-beIdSourceFetcher-18ZHUM3DHLOYO",
            "category": "Trade Registry",
            "display_name": "Company House",
            "fields": [
                "officership",
                "documents",
                "overview"
            ]
        },
        {
            "artifact": "fetchers.companieslist_co_uk.companieslist",
            "fetch_type": "screen-scrap",
            "source_name": "companieslist.co.uk",
            "jurisdictions": [
                "GB"
            ],
            "apiurl": "https://pb0rytz224.execute-api.eu-west-1.amazonaws.com/Prod/v1/api-async?source=companieslist.co.uk&query={query}",
            "api_base_url": "https://pb0rytz224.execute-api.eu-west-1.amazonaws.com/Prod/v1/api-async?source=companieslist.co.uk",
            "lambda_name": "be-id-sources-dev-beIdSourceFetcher-18ZHUM3DHLOYO",
            "category": "Trade Registry",
            "display_name": "UK Company List",
            "fields": [
                "officership",
                "overview"
            ]
        },
        {
            "artifact": "fetchers.permid_org.permid",
            "fetch_type": "api",
            "source_name": "permid.org",
            "jurisdictions": [
                "ANY"
            ],
            "apiurl": "https://pb0rytz224.execute-api.eu-west-1.amazonaws.com/Prod/v1/api-async?source=permid.org&query={query}",
            "api_base_url": "https://pb0rytz224.execute-api.eu-west-1.amazonaws.com/Prod/v1/api-async?source=permid.org",
            "lambda_name": "be-id-sources-dev-beIdSourceFetcher-18ZHUM3DHLOYO",
            "category": "Trade Registry",
            "display_name": "Open PermID",
            "fields": [
                "officership",
                "overview"
            ]
        },
        {
            "artifact": "fetchers.economie_fgov_be.economie",
            "fetch_type": "screen-scrap",
            "source_name": "kbopub.economie.fgov.be",
            "jurisdictions": [
                "BE"
            ],
            "apiurl": "https://pb0rytz224.execute-api.eu-west-1.amazonaws.com/Prod/v1/api-async?source=kbopub.economie.fgov.be&query={query}",
            "api_base_url": "https://pb0rytz224.execute-api.eu-west-1.amazonaws.com/Prod/v1/api-async?source=kbopub.economie.fgov.be",
            "lambda_name": "be-id-sources-dev-beIdSourceFetcher-18ZHUM3DHLOYO",
            "category": "Trade Registry",
            "display_name": "kbopub.economie.fgov.be",
            "fields": [
                "officership",
                "overview",
                "documents"
            ]
        },
        {
            "artifact": "fetchers.verif_com.verif",
            "fetch_type": "screen-scrap",
            "source_name": "verif.com",
            "jurisdictions": [
                "FR"
            ],
            "apiurl": "https://pb0rytz224.execute-api.eu-west-1.amazonaws.com/Prod/v1/api-async?source=verif.com&query={query}",
            "api_base_url": "https://pb0rytz224.execute-api.eu-west-1.amazonaws.com/Prod/v1/api-async?source=verif.com",
            "lambda_name": "be-id-sources-dev-beIdSourceFetcher-18ZHUM3DHLOYO",
            "category": "Trade Registry",
            "display_name": "Verif",
            "fields": [
                "officership",
                "overview"
            ]
        },
        {
            "artifact": "fetchers.lei_info.leiinfo",
            "fetch_type": "screen-scrap",
            "source_name": "lei.info",
            "jurisdictions": [
                "ANY"
            ],
            "apiurl": "https://pb0rytz224.execute-api.eu-west-1.amazonaws.com/Prod/v1/api-async?source=lei.info&query={query}",
            "api_base_url": "https://pb0rytz224.execute-api.eu-west-1.amazonaws.com/Prod/v1/api-async?source=lei.info",
            "lambda_name": "be-id-sources-dev-beIdSourceFetcher-18ZHUM3DHLOYO",
            "category": "Trade Registry",
            "display_name": "LEI Info",
            "fields": [
                "overview",
                "officership",
                "documents"
            ]
        },
        {
            "artifact": "fetchers.sgx_com.sgxcom",
            "fetch_type": "screen-scrap",
            "source_name": "sgx.com",
            "jurisdictions": [
                "SG"
            ],
            "apiurl": "https://pb0rytz224.execute-api.eu-west-1.amazonaws.com/Prod/v1/api-async?source=sgx.com&query={query}",
            "api_base_url": "https://pb0rytz224.execute-api.eu-west-1.amazonaws.com/Prod/v1/api-async?source=sgx.com",
            "lambda_name": "be-id-sources-dev-beIdSourceFetcher-18ZHUM3DHLOYO",
            "category": "Stock Exchange",
            "display_name": "Singapore Exchange",
            "fields": [
                "overview",
                "officership"
            ]
        },
        {
            "artifact": "fetchers.eurodb_be.eurodb",
            "fetch_type": "screen-scrap",
            "source_name": "eurodb.be",
            "jurisdictions": [
                "BE"
            ],
            "apiurl": "https://pb0rytz224.execute-api.eu-west-1.amazonaws.com/Prod/v1/api-async?source=eurodb.be&query={query}",
            "api_base_url": "https://pb0rytz224.execute-api.eu-west-1.amazonaws.com/Prod/v1/api-async?source=eurodb.be",
            "lambda_name": "be-id-sources-dev-beIdSourceFetcher-18ZHUM3DHLOYO",
            "category": "Trade Registry",
            "display_name": "Coface Euro DB",
            "fields": [
                "overview"
            ]
        },
        {
            "artifact": "fetchers.boerse_muenchen_de_bvd.boerse_muenchen",
            "fetch_type": "screen-scrap",
            "source_name": "boerse-muenchen.de",
            "jurisdictions": [
                "DE"
            ],
            "apiurl": "https://pb0rytz224.execute-api.eu-west-1.amazonaws.com/Prod/v1/api-async?source=boerse-muenchen.de&query={query}",
            "api_base_url": "https://pb0rytz224.execute-api.eu-west-1.amazonaws.com/Prod/v1/api-async?source=boerse-muenchen.de",
            "lambda_name": "be-id-sources-dev-beIdSourceFetcher-18ZHUM3DHLOYO",
            "category": "Stock Exchange",
            "display_name": "Munich Stock Exchange",
            "fields": [
                "overview",
                "officership",
                "graph:shareholders"
            ]
        },
        {
            "artifact": "fetchers.boerse_duesseldorf_de_bvd.boerse",
            "fetch_type": "screen-scrap",
            "source_name": "boerse-duesseldorf.de",
            "jurisdictions": [
                "DE"
            ],
            "apiurl": "https://pb0rytz224.execute-api.eu-west-1.amazonaws.com/Prod/v1/api-async?source=boerse-duesseldorf.de&query={query}",
            "api_base_url": "https://pb0rytz224.execute-api.eu-west-1.amazonaws.com/Prod/v1/api-async?source=boerse-duesseldorf.de",
            "lambda_name": "be-id-sources-dev-beIdSourceFetcher-18ZHUM3DHLOYO",
            "category": "Stock Exchange",
            "display_name": "Dusseldorf Stock Exchange",
            "fields": [
                "overview",
                "officership",
                "graph:shareholders"
            ]
        },
        {
            "artifact": "fetchers.datacvr_virk_dk.datacvr",
            "fetch_type": "screen-scrap",
            "source_name": "datacvr.virk.dk",
            "jurisdictions": [
                "DK"
            ],
            "apiurl": "https://pb0rytz224.execute-api.eu-west-1.amazonaws.com/Prod/v1/api-async?source=datacvr.virk.dk&query={query}",
            "api_base_url": "https://pb0rytz224.execute-api.eu-west-1.amazonaws.com/Prod/v1/api-async?source=datacvr.virk.dk",
            "lambda_name": "be-id-sources-dev-beIdSourceFetcher-18ZHUM3DHLOYO",
            "category": "Trade Registry",
            "display_name": "Central Business Register",
            "fields": [
                "overview",
                "officership",
                "documents"
            ]
        },
        {
            "artifact": "fetchers.virksomhedsregister_finanstilsynet_dk.virksomhedsregister",
            "fetch_type": "screen-scrap",
            "source_name": "virksomhedsregister.finanstilsynet.dk",
            "jurisdictions": [
                "DK"
            ],
            "apiurl": "https://pb0rytz224.execute-api.eu-west-1.amazonaws.com/Prod/v1/api-async?source=virksomhedsregister.finanstilsynet.dk&query={query}",
            "api_base_url": "https://pb0rytz224.execute-api.eu-west-1.amazonaws.com/Prod/v1/api-async?source=virksomhedsregister.finanstilsynet.dk",
            "lambda_name": "be-id-sources-dev-beIdSourceFetcher-18ZHUM3DHLOYO",
            "category": "Regulators",
            "display_name": "Danish Financial Supervisory Authority",
            "fields": [
                "overview"
            ]
        },
        {
            "artifact": "fetchers.jerseyfsc_org.jerseyfsc",
            "fetch_type": "screen-scrap",
            "source_name": "jerseyfsc.org",
            "jurisdictions": [
                "GB",
                "JE"
            ],
            "apiurl": "https://pb0rytz224.execute-api.eu-west-1.amazonaws.com/Prod/v1/api-async?source=jerseyfsc.org&query={query}",
            "api_base_url": "https://pb0rytz224.execute-api.eu-west-1.amazonaws.com/Prod/v1/api-async?source=jerseyfsc.org",
            "lambda_name": "be-id-sources-dev-beIdSourceFetcher-18ZHUM3DHLOYO",
            "category": "Trade Registry",
            "display_name": "JFSC Companies Registry",
            "fields": [
                "overview",
                "documents"
            ]
        },
        {
            "artifact": "fetchers.rekvizitai_vz_lt.rekvizitai",
            "fetch_type": "screen-scrap",
            "source_name": "rekvizitai.vz.lt",
            "jurisdictions": [
                "LT"
            ],
            "apiurl": "https://pb0rytz224.execute-api.eu-west-1.amazonaws.com/Prod/v1/api-async?source=rekvizitai.vz.lt&query={query}",
            "api_base_url": "https://pb0rytz224.execute-api.eu-west-1.amazonaws.com/Prod/v1/api-async?source=rekvizitai.vz.lt",
            "lambda_name": "be-id-sources-dev-beIdSourceFetcher-18ZHUM3DHLOYO",
            "category": "Trade Registry",
            "display_name": "Centre of Registers",
            "fields": [
                "overview",
                "officership"
            ]
        },
        {
            "artifact": "fetchers.hkex_com_hk.hkex",
            "fetch_type": "screen-scrap",
            "source_name": "hkex.com.hk",
            "jurisdictions": [
                "HK"
            ],
            "apiurl": "https://pb0rytz224.execute-api.eu-west-1.amazonaws.com/Prod/v1/api-async?source=hkex.com.hk&query={query}",
            "api_base_url": "https://pb0rytz224.execute-api.eu-west-1.amazonaws.com/Prod/v1/api-async?source=hkex.com.hk",
            "lambda_name": "be-id-sources-dev-beIdSourceFetcher-18ZHUM3DHLOYO",
            "category": "Stock Exchange",
            "display_name": "Hong Kong Exchanges and Clearing",
            "fields": [
                "overview",
                "officership",
                "shareholders",
                "documents"
            ]
        },
        {
            "artifact": "fetchers.jpx_co_jp.jpx",
            "fetch_type": "screen-scrap",
            "source_name": "jpx.co.jp",
            "jurisdictions": [
                "JP"
            ],
            "apiurl": "https://pb0rytz224.execute-api.eu-west-1.amazonaws.com/Prod/v1/api-async?source=jpx.co.jp&query={query}",
            "api_base_url": "https://pb0rytz224.execute-api.eu-west-1.amazonaws.com/Prod/v1/api-async?source=jpx.co.jp",
            "lambda_name": "be-id-sources-dev-beIdSourceFetcher-18ZHUM3DHLOYO",
            "category": "Stock Exchange",
            "display_name": "Osaka Exchange",
            "fields": [
                "overview",
                "documents"
            ]
        },
        {
            "artifact": "fetchers.lbr_lu.lbr",
            "fetch_type": "screen-scrap",
            "source_name": "lbr.lu",
            "jurisdictions": [
                "LU"
            ],
            "apiurl": "https://pb0rytz224.execute-api.eu-west-1.amazonaws.com/Prod/v1/api-async?source=lbr.lu&query={query}",
            "api_base_url": "https://pb0rytz224.execute-api.eu-west-1.amazonaws.com/Prod/v1/api-async?source=lbr.lu",
            "lambda_name": "be-id-sources-dev-beIdSourceFetcher-18ZHUM3DHLOYO",
            "category": "Trade Registry",
            "display_name": "Luxembourg Business Registers",
            "fields": [
                "overview"
            ]
        },
        {
            "artifact": "fetchers.boerse_frankfurt_de_bvd.boerse_frankfurt",
            "fetch_type": "screen-scrap",
            "source_name": "boerse-frankfurt.de",
            "jurisdictions": [
                "DE"
            ],
            "apiurl": "https://pb0rytz224.execute-api.eu-west-1.amazonaws.com/Prod/v1/api-async?source=boerse-frankfurt.de&query={query}",
            "api_base_url": "https://pb0rytz224.execute-api.eu-west-1.amazonaws.com/Prod/v1/api-async?source=boerse-frankfurt.de",
            "lambda_name": "be-id-sources-dev-beIdSourceFetcher-18ZHUM3DHLOYO",
            "category": "Trade Registry",
            "display_name": "Frankfurt Stock Exchange",
            "fields": [
                "overview",
                "officership",
                "graph:shareholders"
            ]
        },
        {
            "artifact": "fetchers.fi_ee_bvd.fi",
            "fetch_type": "screen-scrap",
            "source_name": "fi.ee",
            "jurisdictions": [
                "DE"
            ],
            "apiurl": "https://pb0rytz224.execute-api.eu-west-1.amazonaws.com/Prod/v1/api-async?source=fi.ee&query={query}",
            "api_base_url": "https://pb0rytz224.execute-api.eu-west-1.amazonaws.com/Prod/v1/api-async?source=fi.ee",
            "lambda_name": "be-id-sources-dev-beIdSourceFetcher-18ZHUM3DHLOYO",
            "category": "Regulators",
            "display_name": "Financial Supervision Authority",
            "fields": [
                "overview",
                "graph:shareholders"
            ]
        },
        {
            "artifact": "fetchers.fsma_be.fsma",
            "fetch_type": "screen-scrap",
            "source_name": "fsma.be",
            "jurisdictions": [
                "BE"
            ],
            "apiurl": "https://pb0rytz224.execute-api.eu-west-1.amazonaws.com/Prod/v1/api-async?source=fsma.be&query={query}",
            "api_base_url": "https://pb0rytz224.execute-api.eu-west-1.amazonaws.com/Prod/v1/api-async?source=fsma.be",
            "lambda_name": "be-id-sources-dev-beIdSourceFetcher-18ZHUM3DHLOYO",
            "category": "Regulators",
            "display_name": "Financial Services and Markets Authority",
            "fields": [
                "overview"
            ]
        },
        {
            "artifact": "fetchers.icris_cr_gov_hk.icris",
            "fetch_type": "screen-scrap",
            "source_name": "icris.cr.gov.hk",
            "jurisdictions": [
                "HK"
            ],
            "apiurl": "https://pb0rytz224.execute-api.eu-west-1.amazonaws.com/Prod/v1/api-async?source=icris.cr.gov.hk&query={query}",
            "api_base_url": "https://pb0rytz224.execute-api.eu-west-1.amazonaws.com/Prod/v1/api-async?source=icris.cr.gov.hk",
            "lambda_name": "be-id-sources-dev-beIdSourceFetcher-18ZHUM3DHLOYO",
            "category": "Trade Registry",
            "display_name": "Integrated Companies Registry Information System",
            "fields": [
                "overview"
            ]
        },
        {
            "artifact": "fetchers.rik_ee.ariregisterrikee",
            "fetch_type": "screen-scrap",
            "source_name": "rik.ee",
            "jurisdictions": [
                "EE"
            ],
            "apiurl": "https://pb0rytz224.execute-api.eu-west-1.amazonaws.com/Prod/v1/api-async?source=rik.ee&query={query}",
            "api_base_url": "https://pb0rytz224.execute-api.eu-west-1.amazonaws.com/Prod/v1/api-async?source=rik.ee",
            "lambda_name": "be-id-sources-dev-beIdSourceFetcher-18ZHUM3DHLOYO",
            "category": "Trade Registry",
            "display_name": "Estonian Centre of Registers",
            "fields": [
                "overview"
            ]
        },
        {
            "artifact": "fetchers.borsaitaliana_it_bvd.borsaitaliana",
            "fetch_type": "screen-scrap",
            "source_name": "borsaitaliana.it",
            "jurisdictions": [
                "IT"
            ],
            "apiurl": "https://pb0rytz224.execute-api.eu-west-1.amazonaws.com/Prod/v1/api-async?source=borsaitaliana.it&query={query}",
            "api_base_url": "https://pb0rytz224.execute-api.eu-west-1.amazonaws.com/Prod/v1/api-async?source=borsaitaliana.it",
            "lambda_name": "be-id-sources-dev-beIdSourceFetcher-18ZHUM3DHLOYO",
            "category": "Stock Exchange",
            "display_name": "Italian Stock Exchange",
            "fields": [
                "overview",
                "graph:shareholders",
                "officership"
            ]
        },
        {
            "artifact": "fetchers.company_hungary_com.company_hungary",
            "fetch_type": "screen-scrap",
            "source_name": "company-hungary.com",
            "jurisdictions": [
                "HU"
            ],
            "apiurl": "https://pb0rytz224.execute-api.eu-west-1.amazonaws.com/Prod/v1/api-async?source=company-hungary.com&query={query}",
            "api_base_url": "https://pb0rytz224.execute-api.eu-west-1.amazonaws.com/Prod/v1/api-async?source=company-hungary.com",
            "lambda_name": "be-id-sources-dev-beIdSourceFetcher-18ZHUM3DHLOYO",
            "category": "Trade Registry",
            "display_name": "Company Hungary",
            "fields": [
                "overview"
            ]
        },
        {
            "artifact": "fetchers.coraweb_sos_la_gov.coraweb",
            "fetch_type": "screen-scrap",
            "source_name": "coraweb.sos.la.gov",
            "jurisdictions": [
                "US"
            ],
            "apiurl": "https://pb0rytz224.execute-api.eu-west-1.amazonaws.com/Prod/v1/api-async?source=coraweb.sos.la.gov&query={query}",
            "api_base_url": "https://pb0rytz224.execute-api.eu-west-1.amazonaws.com/Prod/v1/api-async?source=coraweb.sos.la.gov",
            "lambda_name": "be-id-sources-dev-beIdSourceFetcher-18ZHUM3DHLOYO",
            "category": "Trade Registry",
            "display_name": "Louisiana",
            "fields": [
                "overview",
                "officership"
            ]
        },
        {
            "artifact": "fetchers.gpw_pl.gpw",
            "fetch_type": "screen-scrap",
            "source_name": "gpw.pl",
            "jurisdictions": [
                "PL"
            ],
            "apiurl": "https://pb0rytz224.execute-api.eu-west-1.amazonaws.com/Prod/v1/api-async?source=gpw.pl&query={query}",
            "api_base_url": "https://pb0rytz224.execute-api.eu-west-1.amazonaws.com/Prod/v1/api-async?source=gpw.pl",
            "lambda_name": "be-id-sources-dev-beIdSourceFetcher-18ZHUM3DHLOYO",
            "category": "Stock Exchange",
            "display_name": "GPW Stock Exchange",
            "fields": [
                "overview",
                "officership",
                "shareholders",
                "documents"
            ]
        },
        {
            "artifact": "fetchers.intezmenykereso_mnb_hu.intezmenykereso",
            "fetch_type": "screen-scrap",
            "source_name": "mnb.hu",
            "jurisdictions": [
                "HU"
            ],
            "apiurl": "https://pb0rytz224.execute-api.eu-west-1.amazonaws.com/Prod/v1/api-async?source=mnb.hu&query={query}",
            "api_base_url": "https://pb0rytz224.execute-api.eu-west-1.amazonaws.com/Prod/v1/api-async?source=mnb.hu",
            "lambda_name": "be-id-sources-dev-beIdSourceFetcher-18ZHUM3DHLOYO",
            "category": "Regulators",
            "display_name": "Central Bank of Hungary",
            "fields": [
                "overview"
            ]
        },
        {
            "artifact": "fetchers.londonstockexchange_com.londonstockexchange",
            "fetch_type": "screen-scrap",
            "source_name": "londonstockexchange.com",
            "jurisdictions": [
                "GB"
            ],
            "apiurl": "https://pb0rytz224.execute-api.eu-west-1.amazonaws.com/Prod/v1/api-async?source=londonstockexchange.com&query={query}",
            "api_base_url": "https://pb0rytz224.execute-api.eu-west-1.amazonaws.com/Prod/v1/api-async?source=londonstockexchange.com",
            "lambda_name": "be-id-sources-dev-beIdSourceFetcher-18ZHUM3DHLOYO",
            "category": "Stock Exchange",
            "display_name": "London Stock Exchange",
            "fields": [
                "overview"
            ]
        },
        {
            "artifact": "fetchers.lursoft_lv.lursoftlv",
            "fetch_type": "screen-scrap",
            "source_name": "lursoft.lv",
            "jurisdictions": [
                "NL"
            ],
            "apiurl": "https://pb0rytz224.execute-api.eu-west-1.amazonaws.com/Prod/v1/api-async?source=lursoft.lv&query={query}",
            "api_base_url": "https://pb0rytz224.execute-api.eu-west-1.amazonaws.com/Prod/v1/api-async?source=lursoft.lv",
            "lambda_name": "be-id-sources-dev-beIdSourceFetcher-18ZHUM3DHLOYO",
            "category": "Stock Exchange",
            "display_name": "Lursoft Business Register",
            "fields": [
                "overview"
            ]
        },
        {
            "artifact": "fetchers.aex_nl_bvd.aex",
            "fetch_type": "screen-scrap",
            "source_name": "aex.nl",
            "jurisdictions": [
                "NL"
            ],
            "apiurl": "https://pb0rytz224.execute-api.eu-west-1.amazonaws.com/Prod/v1/api-async?source=aex.nl&query={query}",
            "api_base_url": "https://pb0rytz224.execute-api.eu-west-1.amazonaws.com/Prod/v1/api-async?source=aex.nl",
            "lambda_name": "be-id-sources-dev-beIdSourceFetcher-18ZHUM3DHLOYO",
            "category": "Stock Exchange",
            "display_name": "Euronext Amsterdam",
            "fields": [
                "overview",
                "officership",
                "graph:shareholders"
            ]
        },
        {
            "artifact": "fetchers.beurs_be.beurs",
            "fetch_type": "screen-scrap",
            "source_name": "beurs.be",
            "jurisdictions": [
                "BE"
            ],
            "apiurl": "https://pb0rytz224.execute-api.eu-west-1.amazonaws.com/Prod/v1/api-async?source=beurs.be&query={query}",
            "api_base_url": "https://pb0rytz224.execute-api.eu-west-1.amazonaws.com/Prod/v1/api-async?source=beurs.be",
            "lambda_name": "be-id-sources-dev-beIdSourceFetcher-18ZHUM3DHLOYO",
            "category": "Stock Exchange",
            "display_name": "Euronext Brussels",
            "fields": [
                "overview",
                "officership",
                "shareholders"
            ]
        },
        {
            "artifact": "fetchers.bourse_be.bourse",
            "fetch_type": "screen-scrap",
            "source_name": "bourse.be",
            "jurisdictions": [
                "BE"
            ],
            "apiurl": "https://pb0rytz224.execute-api.eu-west-1.amazonaws.com/Prod/v1/api-async?source=bourse.be&query={query}",
            "api_base_url": "https://pb0rytz224.execute-api.eu-west-1.amazonaws.com/Prod/v1/api-async?source=bourse.be",
            "lambda_name": "be-id-sources-dev-beIdSourceFetcher-18ZHUM3DHLOYO",
            "category": "Stock Exchange",
            "display_name": "Euronext Brussels",
            "fields": [
                "overview",
                "officership",
                "shareholders"
            ]
        },
        {
            "artifact": "fetchers.boursedeparis_fr.boursedeparis",
            "fetch_type": "screen-scrap",
            "source_name": "boursedeparis.fr",
            "jurisdictions": [
                "FR"
            ],
            "apiurl": "https://pb0rytz224.execute-api.eu-west-1.amazonaws.com/Prod/v1/api-async?source=boursedeparis.fr&query={query}",
            "api_base_url": "https://pb0rytz224.execute-api.eu-west-1.amazonaws.com/Prod/v1/api-async?source=boursedeparis.fr",
            "lambda_name": "be-id-sources-dev-beIdSourceFetcher-18ZHUM3DHLOYO",
            "category": "Stock Exchange",
            "display_name": "Euronext Paris",
            "fields": [
                "overview",
                "officership",
                "shareholders"
            ]
        },
        {
            "artifact": "fetchers.nasdaqbaltic_com.nasdaqbaltic",
            "fetch_type": "screen-scrap",
            "source_name": "nasdaqbaltic.com",
            "jurisdictions": [
                "EE",
                "FI",
                "DK",
                "LV",
                "LT"
            ],
            "apiurl": "https://pb0rytz224.execute-api.eu-west-1.amazonaws.com/Prod/v1/api-async?source=nasdaqbaltic.com&query={query}",
            "api_base_url": "https://pb0rytz224.execute-api.eu-west-1.amazonaws.com/Prod/v1/api-async?source=nasdaqbaltic.com",
            "lambda_name": "be-id-sources-dev-beIdSourceFetcher-18ZHUM3DHLOYO",
            "category": "Stock Exchange",
            "display_name": "NASDAQ OMX Tallin",
            "fields": [
                "overview",
                "officership"
            ]
        },
        {
            "artifact": "fetchers.sec_gov_bvd.sec",
            "fetch_type": "screen-scrap",
            "source_name": "sec.gov",
            "jurisdictions": [
                "ANY"
            ],
            "apiurl": "https://pb0rytz224.execute-api.eu-west-1.amazonaws.com/Prod/v1/api-async?source=sec.gov&query={query}",
            "api_base_url": "https://pb0rytz224.execute-api.eu-west-1.amazonaws.com/Prod/v1/api-async?source=sec.gov",
            "lambda_name": "be-id-sources-dev-beIdSourceFetcher-18ZHUM3DHLOYO",
            "category": "Regulators",
            "display_name": "U.S. Securities and Exchange Commission",
            "fields": [
                "overview",
                "officership",
                "shareholders",
                "documents"
            ]
        },
        {
            "artifact": "fetchers.afm_nl_bvd.afm",
            "fetch_type": "screen-scrap",
            "source_name": "afm.nl",
            "jurisdictions": [
                "NL"
            ],
            "apiurl": "https://pb0rytz224.execute-api.eu-west-1.amazonaws.com/Prod/v1/api-async?source=afm.nl&query={query}",
            "api_base_url": "https://pb0rytz224.execute-api.eu-west-1.amazonaws.com/Prod/v1/api-async?source=afm.nl",
            "lambda_name": "be-id-sources-dev-beIdSourceFetcher-18ZHUM3DHLOYO",
            "category": "Regulators",
            "display_name": "Netherlands Authority for the Financial Markets",
            "fields": [
                "overview",
                "graph:shareholders"
            ]
        },
        {
            "artifact": "fetchers.belex_rs.belex",
            "fetch_type": "screen-scrap",
            "source_name": "belex.rs",
            "jurisdictions": [
                "RS"
            ],
            "apiurl": "https://pb0rytz224.execute-api.eu-west-1.amazonaws.com/Prod/v1/api-async?source=belex.rs&query={query}",
            "api_base_url": "https://pb0rytz224.execute-api.eu-west-1.amazonaws.com/Prod/v1/api-async?source=belex.rs",
            "lambda_name": "be-id-sources-dev-beIdSourceFetcher-18ZHUM3DHLOYO",
            "category": "Stock Exchange",
            "display_name": "Belgrade Stock Exchange",
            "fields": [
                "overview",
                "officership"
            ]
        },
        {
            "artifact": "fetchers.bvb_ro_bvd.bvb",
            "fetch_type": "screen-scrap",
            "source_name": "bvb.ro",
            "jurisdictions": [
                "RO"
            ],
            "apiurl": "https://pb0rytz224.execute-api.eu-west-1.amazonaws.com/Prod/v1/api-async?source=bvb.ro&query={query}",
            "api_base_url": "https://pb0rytz224.execute-api.eu-west-1.amazonaws.com/Prod/v1/api-async?source=bvb.ro",
            "lambda_name": "be-id-sources-dev-beIdSourceFetcher-18ZHUM3DHLOYO",
            "category": "Stock Exchange",
            "display_name": "Bucharest Stock Exchange",
            "fields": [
                "overview",
                "graph:shareholders"
            ]
        },
        {
            "artifact": "fetchers.bolsamadrid_es.bolsamadrid",
            "fetch_type": "screen-scrap",
            "source_name": "bolsamadrid.es",
            "jurisdictions": [
                "ES"
            ],
            "apiurl": "https://pb0rytz224.execute-api.eu-west-1.amazonaws.com/Prod/v1/api-async?source=bolsamadrid.es&query={query}",
            "api_base_url": "https://pb0rytz224.execute-api.eu-west-1.amazonaws.com/Prod/v1/api-async?source=bolsamadrid.es",
            "lambda_name": "be-id-sources-dev-beIdSourceFetcher-18ZHUM3DHLOYO",
            "category": "Stock Exchange",
            "display_name": "Madrid Stock Exchange",
            "fields": [
                "overview"
            ]
        },
        {
            "artifact": "fetchers.greg_gg.greggg",
            "fetch_type": "screen-scrap",
            "source_name": "greg.gg",
            "jurisdictions": [
                "GG"
            ],
            "apiurl": "https://pb0rytz224.execute-api.eu-west-1.amazonaws.com/Prod/v1/api-async?source=greg.gg&query={query}",
            "api_base_url": "https://pb0rytz224.execute-api.eu-west-1.amazonaws.com/Prod/v1/api-async?source=greg.gg",
            "lambda_name": "be-id-sources-dev-beIdSourceFetcher-18ZHUM3DHLOYO",
            "category": "Trade Registry",
            "display_name": "Guernsey Registry",
            "fields": [
                "overview"
            ]
        },
        {
            "artifact": "fetchers.wienerborse_at.wienerborse",
            "fetch_type": "screen-scrap",
            "source_name": "wienerborse.at",
            "jurisdictions": [
                "AT"
            ],
            "apiurl": "https://pb0rytz224.execute-api.eu-west-1.amazonaws.com/Prod/v1/api-async?source=wienerborse.at&query={query}",
            "api_base_url": "https://pb0rytz224.execute-api.eu-west-1.amazonaws.com/Prod/v1/api-async?source=wienerborse.at",
            "lambda_name": "be-id-sources-dev-beIdSourceFetcher-18ZHUM3DHLOYO",
            "category": "Stock Exchange",
            "display_name": "Vienna Stock Exchange",
            "fields": [
                "overview",
                "officership"
            ]
        },
        {
            "artifact": "fetchers.kap_org_tr_bvd.kap",
            "fetch_type": "screen-scrap",
            "source_name": "kap.org.tr",
            "jurisdictions": [
                "TR"
            ],
            "apiurl": "https://pb0rytz224.execute-api.eu-west-1.amazonaws.com/Prod/v1/api-async?source=kap.org.tr&query={query}",
            "api_base_url": "https://pb0rytz224.execute-api.eu-west-1.amazonaws.com/Prod/v1/api-async?source=kap.org.tr",
            "lambda_name": "be-id-sources-dev-beIdSourceFetcher-18ZHUM3DHLOYO",
            "category": "Stock Exchange",
            "display_name": "Istanbul Stock Exchange",
            "fields": [
                "overview",
                "officership",
                "shareholders"
            ]
        },
        {
            "artifact": "fetchers.boerse_stuttgart_de.boerse_stuttgart",
            "fetch_type": "screen-scrap",
            "source_name": "boerse-stuttgart.de",
            "jurisdictions": [
                "DE"
            ],
            "apiurl": "https://pb0rytz224.execute-api.eu-west-1.amazonaws.com/Prod/v1/api-async?source=boerse-stuttgart.de&query={query}",
            "api_base_url": "https://pb0rytz224.execute-api.eu-west-1.amazonaws.com/Prod/v1/api-async?source=boerse-stuttgart.de",
            "lambda_name": "be-id-sources-dev-beIdSourceFetcher-18ZHUM3DHLOYO",
            "category": "Stock Exchange",
            "display_name": "Stuttgart Stock Exchange",
            "fields": [
                "overview"
            ]
        },
        {
            "artifact": "fetchers.bafin_de.bafin",
            "fetch_type": "screen-scrap",
            "source_name": "bafin.de",
            "jurisdictions": [
                "DE"
            ],
            "apiurl": "https://pb0rytz224.execute-api.eu-west-1.amazonaws.com/Prod/v1/api-async?source=bafin.de&query={query}",
            "api_base_url": "https://pb0rytz224.execute-api.eu-west-1.amazonaws.com/Prod/v1/api-async?source=bafin.de",
            "lambda_name": "be-id-sources-dev-beIdSourceFetcher-18ZHUM3DHLOYO",
            "category": "Regulators",
            "display_name": "Federal Financial Supervisory Authority",
            "fields": [
                "overview"
            ]
        },
        {
            "artifact": "fetchers.nbs_rs_bvd.nbs",
            "fetch_type": "screen-scrap",
            "source_name": "nbs.rs",
            "jurisdictions": [
                "RS"
            ],
            "apiurl": "https://pb0rytz224.execute-api.eu-west-1.amazonaws.com/Prod/v1/api-async?source=nbs.rs&query={query}",
            "api_base_url": "https://pb0rytz224.execute-api.eu-west-1.amazonaws.com/Prod/v1/api-async?source=nbs.rs",
            "lambda_name": "be-id-sources-dev-beIdSourceFetcher-18ZHUM3DHLOYO",
            "category": "Regulators",
            "display_name": "National Bank of Serbia",
            "fields": [
                "overview",
                "officership",
                "graph:shareholders"
            ]
        },
        {
            "artifact": "fetchers.icis_corp_delaware_gov.delaware",
            "fetch_type": "screen-scrap",
            "source_name": "icis.corp.delaware.gov",
            "jurisdictions": [
                "US"
            ],
            "apiurl": "https://pb0rytz224.execute-api.eu-west-1.amazonaws.com/Prod/v1/api-async?source=icis.corp.delaware.gov&query={query}",
            "api_base_url": "https://pb0rytz224.execute-api.eu-west-1.amazonaws.com/Prod/v1/api-async?source=icis.corp.delaware.gov",
            "lambda_name": "be-id-sources-dev-beIdSourceFetcher-18ZHUM3DHLOYO",
            "category": "Trade Registry",
            "display_name": "Deleware",
            "fields": []
        },
        {
            "artifact": "fetchers.boerse_berlin_com.boerse_berlin",
            "fetch_type": "screen-scrap",
            "source_name": "boerse-berlin.com",
            "jurisdictions": [
                "DE"
            ],
            "apiurl": "https://pb0rytz224.execute-api.eu-west-1.amazonaws.com/Prod/v1/api-async?source=boerse-berlin.com&query={query}",
            "api_base_url": "https://pb0rytz224.execute-api.eu-west-1.amazonaws.com/Prod/v1/api-async?source=boerse-berlin.com",
            "lambda_name": "be-id-sources-dev-beIdSourceFetcher-18ZHUM3DHLOYO",
            "category": "Stock Exchange",
            "display_name": "Berlin Stock Exchange",
            "fields": [
                "overview"
            ]
        },
        {
            "artifact": "fetchers.wvb_com.wvb",
            "fetch_type": "screen-scrap",
            "source_name": "wvb.com",
            "jurisdictions": [
                "ANY"
            ],
            "apiurl": "https://pb0rytz224.execute-api.eu-west-1.amazonaws.com/Prod/v1/api-async?source=wvb.com&query={query}",
            "api_base_url": "https://pb0rytz224.execute-api.eu-west-1.amazonaws.com/Prod/v1/api-async?source=wvb.com",
            "lambda_name": "be-id-sources-dev-beIdSourceFetcher-18ZHUM3DHLOYO",
            "category": "Trade Registry",
            "display_name": "Global Financial Intelligence",
            "fields": [
                "overview",
                "officership"
            ]
        },
        {
            "artifact": "fetchers.fdic_gov.fdic",
            "fetch_type": "screen-scrap",
            "source_name": "fdic.gov",
            "jurisdictions": [
                "US"
            ],
            "apiurl": "https://pb0rytz224.execute-api.eu-west-1.amazonaws.com/Prod/v1/api-async?source=fdic.gov&query={query}",
            "api_base_url": "https://pb0rytz224.execute-api.eu-west-1.amazonaws.com/Prod/v1/api-async?source=fdic.gov",
            "lambda_name": "be-id-sources-dev-beIdSourceFetcher-18ZHUM3DHLOYO",
            "category": "Regulators",
            "display_name": "Federal Deposit Insurance Corporation",
            "fields": [
                "overview",
                "branches"
            ]
        },
        {
            "artifact": "fetchers.ejustice_just_fgov_be.ejustice",
            "fetch_type": "screen-scrap",
            "source_name": "ejustice.just.fgov.be",
            "jurisdictions": [
                "BE"
            ],
            "apiurl": "https://pb0rytz224.execute-api.eu-west-1.amazonaws.com/Prod/v1/api-async?source=ejustice.just.fgov.be&query={query}",
            "api_base_url": "https://pb0rytz224.execute-api.eu-west-1.amazonaws.com/Prod/v1/api-async?source=ejustice.just.fgov.be",
            "lambda_name": "be-id-sources-dev-beIdSourceFetcher-18ZHUM3DHLOYO",
            "category": "Trade Registry",
            "display_name": "Federal Public Service Justice",
            "fields": [
                "overview",
                "documents"
            ]
        },
        {
            "artifact": "fetchers.finra_org.finra_markets",
            "fetch_type": "screen-scrap",
            "source_name": "finra.org",
            "jurisdictions": [
                "US"
            ],
            "apiurl": "https://pb0rytz224.execute-api.eu-west-1.amazonaws.com/Prod/v1/api-async?source=finra.org&query={query}",
            "api_base_url": "https://pb0rytz224.execute-api.eu-west-1.amazonaws.com/Prod/v1/api-async?source=finra.org",
            "lambda_name": "be-id-sources-dev-beIdSourceFetcher-18ZHUM3DHLOYO",
            "category": "Regulators",
            "display_name": "Financial Industry Regulatory Authority",
            "fields": [
                "overview",
                "documents",
                "officership",
                "shareholders"
            ]
        },
        {
            "artifact": "fetchers.ffiec_gov_bvd.ffiec",
            "fetch_type": "screen-scrap",
            "source_name": "ffiec.gov",
            "jurisdictions": [
                "US"
            ],
            "apiurl": "https://pb0rytz224.execute-api.eu-west-1.amazonaws.com/Prod/v1/api-async?source=ffiec.gov&query={query}",
            "api_base_url": "https://pb0rytz224.execute-api.eu-west-1.amazonaws.com/Prod/v1/api-async?source=ffiec.gov",
            "lambda_name": "be-id-sources-dev-beIdSourceFetcher-18ZHUM3DHLOYO",
            "category": "Regulators",
            "display_name": "Federal Reserve System",
            "fields": [
                "overview",
                "shareholders"
            ]
        },
        {
            "artifact": "fetchers.fma_gv_at.fmagvat",
            "fetch_type": "screen-scrap",
            "source_name": "fma.gv.at",
            "jurisdictions": [
                "AT"
            ],
            "apiurl": "https://pb0rytz224.execute-api.eu-west-1.amazonaws.com/Prod/v1/api-async?source=fma.gv.at&query={query}",
            "api_base_url": "https://pb0rytz224.execute-api.eu-west-1.amazonaws.com/Prod/v1/api-async?source=fma.gv.at",
            "lambda_name": "be-id-sources-dev-beIdSourceFetcher-18ZHUM3DHLOYO",
            "category": "Regulators",
            "display_name": "Financial Market Authority",
            "fields": [
                "overview"
            ]
        },
        {
            "artifact": "fetchers.tradegate_de.tradegate",
            "fetch_type": "screen-scrap",
            "source_name": "tradegate.de",
            "jurisdictions": [
                "DE"
            ],
            "apiurl": "https://pb0rytz224.execute-api.eu-west-1.amazonaws.com/Prod/v1/api-async?source=tradegate.de&query={query}",
            "api_base_url": "https://pb0rytz224.execute-api.eu-west-1.amazonaws.com/Prod/v1/api-async?source=tradegate.de",
            "lambda_name": "be-id-sources-dev-beIdSourceFetcher-18ZHUM3DHLOYO",
            "category": "Stock Exchange",
            "display_name": "Tradegate Exchange",
            "fields": []
        },
        {
            "artifact": "fetchers.tisegroup.tisegroup",
            "fetch_type": "screen-scrap",
            "source_name": "tisegroup.com",
            "jurisdictions": [
                "GG",
                "JE"
            ],
            "apiurl": "https://pb0rytz224.execute-api.eu-west-1.amazonaws.com/Prod/v1/api-async?source=tisegroup.com&query={query}",
            "api_base_url": "https://pb0rytz224.execute-api.eu-west-1.amazonaws.com/Prod/v1/api-async?source=tisegroup.com",
            "lambda_name": "be-id-sources-dev-beIdSourceFetcher-18ZHUM3DHLOYO",
            "category": "Stock Exchange",
            "display_name": "The International Stock Exchange",
            "fields": []
        },
        {
            "artifact": "fetchers.zefix.zefix",
            "fetch_type": "screen-scrap",
            "source_name": "zefix.admin.ch",
            "jurisdictions": [
                "CH"
            ],
            "apiurl": "https://pb0rytz224.execute-api.eu-west-1.amazonaws.com/Prod/v1/api-async?source=zefix.admin.ch&query={query}",
            "api_base_url": "https://pb0rytz224.execute-api.eu-west-1.amazonaws.com/Prod/v1/api-async?source=zefix.admin.ch",
            "lambda_name": "be-id-sources-dev-beIdSourceFetcher-18ZHUM3DHLOYO",
            "category": "Trade Registry",
            "display_name": "Zefix – Central Business Name Index",
            "fields": []
        },
        {
            "artifact": "fetchers.bizreg_pravosudje.bizreg_pravosudje",
            "fetch_type": "screen-scrap",
            "source_name": "bizreg.pravosudje.ba",
            "jurisdictions": [
                "BA"
            ],
            "apiurl": "https://pb0rytz224.execute-api.eu-west-1.amazonaws.com/Prod/v1/api-async?source=bizreg.pravosudje.ba&query={query}",
            "api_base_url": "https://pb0rytz224.execute-api.eu-west-1.amazonaws.com/Prod/v1/api-async?source=bizreg.pravosudje.ba",
            "lambda_name": "be-id-sources-dev-beIdSourceFetcher-18ZHUM3DHLOYO",
            "category": "Trade Registry",
            "display_name": "Portal pravosuđa",
            "fields": [
                "overview",
                "officership",
                "shareholders",
                "branches"
            ]
        },
        {
            "artifact": "fetchers.nbrm_mk_bvd.nbrm",
            "fetch_type": "screen-scrap",
            "source_name": "nbrm.mk",
            "jurisdictions": [
                "MK"
            ],
            "apiurl": "https://pb0rytz224.execute-api.eu-west-1.amazonaws.com/Prod/v1/api-async?source=nbrm.mk&query={query}",
            "api_base_url": "https://pb0rytz224.execute-api.eu-west-1.amazonaws.com/Prod/v1/api-async?source=nbrm.mk",
            "lambda_name": "be-id-sources-dev-beIdSourceFetcher-18ZHUM3DHLOYO",
            "category": "Regulators",
            "display_name": "Macedonia Central Bank",
            "fields": [
                "overview",
                "officership",
                "shareholders"
            ]
        },
        {
            "artifact": "fetchers.six_group_bvd.six_group",
            "fetch_type": "screen-scrap",
            "source_name": "six-group.com",
            "jurisdictions": [
                "CH"
            ],
            "apiurl": "https://pb0rytz224.execute-api.eu-west-1.amazonaws.com/Prod/v1/api-async?source=six-group.com&query={query}",
            "api_base_url": "https://pb0rytz224.execute-api.eu-west-1.amazonaws.com/Prod/v1/api-async?source=six-group.com",
            "lambda_name": "be-id-sources-dev-beIdSourceFetcher-18ZHUM3DHLOYO",
            "category": "Stock Exchange",
            "display_name": "SIX Swiss Exchange",
            "fields": [
                "overview",
                "officership",
                "graph:shareholders"
            ]
        },
        {
            "artifact": "fetchers.englishdart.englishdart",
            "fetch_type": "screen-scrap",
            "source_name": "fss.or.kr",
            "jurisdictions": [
                "KR"
            ],
            "apiurl": "https://pb0rytz224.execute-api.eu-west-1.amazonaws.com/Prod/v1/api-async?source=fss.or.kr&query={query}",
            "api_base_url": "https://pb0rytz224.execute-api.eu-west-1.amazonaws.com/Prod/v1/api-async?source=fss.or.kr",
            "lambda_name": "be-id-sources-dev-beIdSourceFetcher-18ZHUM3DHLOYO",
            "category": "Trade Registry",
            "display_name": "National Business Register",
            "fields": [
                "overview",
                "officership",
                "shareholders"
            ]
        },
        {
            "artifact": "fetchers.global_krx.global_krx",
            "fetch_type": "screen-scrap",
            "source_name": "krx.co.kr",
            "jurisdictions": [
                "KR"
            ],
            "apiurl": "https://pb0rytz224.execute-api.eu-west-1.amazonaws.com/Prod/v1/api-async?source=krx.co.kr&query={query}",
            "api_base_url": "https://pb0rytz224.execute-api.eu-west-1.amazonaws.com/Prod/v1/api-async?source=krx.co.kr",
            "lambda_name": "be-id-sources-dev-beIdSourceFetcher-18ZHUM3DHLOYO",
            "category": "Stock Exchange",
            "display_name": "Korea Exchange",
            "fields": [
                "overview"
            ]
        },
        {
            "artifact": "fetchers.english_sse_com.english_sse_com",
            "fetch_type": "screen-scrap",
            "source_name": "sse.com.cn",
            "jurisdictions": [
                "CN"
            ],
            "apiurl": "https://pb0rytz224.execute-api.eu-west-1.amazonaws.com/Prod/v1/api-async?source=sse.com.cn&query={query}",
            "api_base_url": "https://pb0rytz224.execute-api.eu-west-1.amazonaws.com/Prod/v1/api-async?source=sse.com.cn",
            "lambda_name": "be-id-sources-dev-beIdSourceFetcher-18ZHUM3DHLOYO",
            "category": "Stock Exchange",
            "display_name": "Shanghai Stock Exchange (SSE)",
            "fields": [
                "overview"
            ]
        },
        {
            "artifact": "fetchers.bourse.bourse",
            "fetch_type": "screen-scrap",
            "source_name": "bourse.lu",
            "jurisdictions": [
                "LU"
            ],
            "apiurl": "https://pb0rytz224.execute-api.eu-west-1.amazonaws.com/Prod/v1/api-async?source=bourse.lu&query={query}",
            "api_base_url": "https://pb0rytz224.execute-api.eu-west-1.amazonaws.com/Prod/v1/api-async?source=bourse.lu",
            "lambda_name": "be-id-sources-dev-beIdSourceFetcher-18ZHUM3DHLOYO",
            "category": "Stock Exchange",
            "display_name": "Luxembourg Stock Exchange",
            "fields": [
                "overview",
                "documents"
            ]
        },
        {
            "artifact": "fetchers.pse_cz.pse",
            "fetch_type": "screen-scrap",
            "source_name": "pse.cz",
            "jurisdictions": [
                "CZ"
            ],
            "apiurl": "https://pb0rytz224.execute-api.eu-west-1.amazonaws.com/Prod/v1/api-async?source=pse.cz&query={query}",
            "api_base_url": "https://pb0rytz224.execute-api.eu-west-1.amazonaws.com/Prod/v1/api-async?source=pse.cz",
            "lambda_name": "be-id-sources-dev-beIdSourceFetcher-18ZHUM3DHLOYO",
            "category": "Stock Exchange",
            "display_name": "Prague Stock Exchange",
            "fields": [
                "overview",
                "officership",
                "documents"
            ]
        },
        {
            "artifact": "fetchers.ise_ie.ise",
            "fetch_type": "screen-scrap",
            "source_name": "ise.ie",
            "jurisdictions": [
                "IE"
            ],
            "apiurl": "https://pb0rytz224.execute-api.eu-west-1.amazonaws.com/Prod/v1/api-async?source=ise.ie&query={query}",
            "api_base_url": "https://pb0rytz224.execute-api.eu-west-1.amazonaws.com/Prod/v1/api-async?source=ise.ie",
            "lambda_name": "be-id-sources-dev-beIdSourceFetcher-18ZHUM3DHLOYO",
            "category": "Stock Exchange",
            "display_name": "ISE -Irish Stock Exchange",
            "fields": [
                "overview"
            ]
        },
        {
            "artifact": "fetchers.search_cro_ie.search_cro",
            "fetch_type": "screen-scrap",
            "source_name": "cro.ie",
            "jurisdictions": [
                "IE"
            ],
            "apiurl": "https://pb0rytz224.execute-api.eu-west-1.amazonaws.com/Prod/v1/api-async?source=cro.ie&query={query}",
            "api_base_url": "https://pb0rytz224.execute-api.eu-west-1.amazonaws.com/Prod/v1/api-async?source=cro.ie",
            "lambda_name": "be-id-sources-dev-beIdSourceFetcher-18ZHUM3DHLOYO",
            "category": "Trade Registry",
            "display_name": "CRO - Companies Registration Office",
            "fields": [
                "overview"
            ]
        },
        {
            "artifact": "fetchers.infogreffe_com.infogreffe",
            "fetch_type": "screen-scrap",
            "source_name": "infogreffe.com",
            "jurisdictions": [
                "FR"
            ],
            "apiurl": "https://pb0rytz224.execute-api.eu-west-1.amazonaws.com/Prod/v1/api-async?source=infogreffe.com&query={query}",
            "api_base_url": "https://pb0rytz224.execute-api.eu-west-1.amazonaws.com/Prod/v1/api-async?source=infogreffe.com",
            "lambda_name": "be-id-sources-dev-beIdSourceFetcher-18ZHUM3DHLOYO",
            "category": "Trade Registry",
            "display_name": "Infogreffe",
            "fields": [
                "overview"
            ]
        },
        {
            "artifact": "fetchers.mfcr_cz.mfcr",
            "fetch_type": "screen-scrap",
            "source_name": "mfcr.cz",
            "jurisdictions": [
                "CZ"
            ],
            "apiurl": "https://pb0rytz224.execute-api.eu-west-1.amazonaws.com/Prod/v1/api-async?source=mfcr.cz&query={query}",
            "api_base_url": "https://pb0rytz224.execute-api.eu-west-1.amazonaws.com/Prod/v1/api-async?source=mfcr.cz",
            "lambda_name": "be-id-sources-dev-beIdSourceFetcher-18ZHUM3DHLOYO",
            "category": "Trade Registry",
            "display_name": "ARES",
            "fields": [
                "overview"
            ]
        },
        {
            "artifact": "fetchers.naicom_gov_ng.naicom",
            "fetch_type": "screen-scrap",
            "source_name": "naicom.gov.ng",
            "jurisdictions": [
                "NG"
            ],
            "apiurl": "https://pb0rytz224.execute-api.eu-west-1.amazonaws.com/Prod/v1/api-async?source=naicom.gov.ng&query={query}",
            "api_base_url": "https://pb0rytz224.execute-api.eu-west-1.amazonaws.com/Prod/v1/api-async?source=naicom.gov.ng",
            "lambda_name": "be-id-sources-dev-beIdSourceFetcher-18ZHUM3DHLOYO",
            "category": "Regulators",
            "display_name": "National Insurance Commission (NAICOM)",
            "fields": [
                "overview"
            ]
        },
        {
            "artifact": "fetchers.consob_it.consob",
            "fetch_type": "screen-scrap",
            "source_name": "consob.it",
            "jurisdictions": [
                "IT"
            ],
            "apiurl": "https://pb0rytz224.execute-api.eu-west-1.amazonaws.com/Prod/v1/api-async?source=consob.it&query={query}",
            "api_base_url": "https://pb0rytz224.execute-api.eu-west-1.amazonaws.com/Prod/v1/api-async?source=consob.it",
            "lambda_name": "be-id-sources-dev-beIdSourceFetcher-18ZHUM3DHLOYO",
            "category": "Regulators",
            "display_name": "Consob",
            "fields": [
                "overview",
                "shareholders",
                "officership"
            ]
        },
        {
            "artifact": "fetchers.nse_com_ng.nse",
            "fetch_type": "screen-scrap",
            "source_name": "nse.ng",
            "jurisdictions": [
                "NG"
            ],
            "apiurl": "https://pb0rytz224.execute-api.eu-west-1.amazonaws.com/Prod/v1/api-async?source=nse.ng&query={query}",
            "api_base_url": "https://pb0rytz224.execute-api.eu-west-1.amazonaws.com/Prod/v1/api-async?source=nse.ng",
            "lambda_name": "be-id-sources-dev-beIdSourceFetcher-18ZHUM3DHLOYO",
            "category": "Stock Exchange",
            "display_name": "The Nigerian Stock Exchange",
            "fields": [
                "overview",
                "officership"
            ]
        },
        {
            "artifact": "fetchers.brreg.brreg",
            "fetch_type": "screen-scrap",
            "source_name": "brreg.no",
            "jurisdictions": [
                "NO"
            ],
            "apiurl": "https://pb0rytz224.execute-api.eu-west-1.amazonaws.com/Prod/v1/api-async?source=brreg.no&query={query}",
            "api_base_url": "https://pb0rytz224.execute-api.eu-west-1.amazonaws.com/Prod/v1/api-async?source=brreg.no",
            "lambda_name": "be-id-sources-dev-beIdSourceFetcher-18ZHUM3DHLOYO",
            "category": "Trade Registry",
            "display_name": "Norway Registry - Brønnøysundregistrene",
            "fields": [
                "overview"
            ]
        },
        {
            "artifact": "fetchers.finanstilsynet_no.finanstilsynet",
            "fetch_type": "screen-scrap",
            "source_name": "finanstilsynet.no",
            "jurisdictions": [
                "NO"
            ],
            "apiurl": "https://pb0rytz224.execute-api.eu-west-1.amazonaws.com/Prod/v1/api-async?source=finanstilsynet.no&query={query}",
            "api_base_url": "https://pb0rytz224.execute-api.eu-west-1.amazonaws.com/Prod/v1/api-async?source=finanstilsynet.no",
            "lambda_name": "be-id-sources-dev-beIdSourceFetcher-18ZHUM3DHLOYO",
            "category": "Regulators",
            "display_name": "Finanstilsynet's",
            "fields": [
                "overview"
            ]
        },
        {
            "artifact": "fetchers.ic_gc.ic_gc",
            "fetch_type": "screen-scrap",
            "source_name": "ic.gc.ca",
            "jurisdictions": [
                "CA"
            ],
            "apiurl": "https://pb0rytz224.execute-api.eu-west-1.amazonaws.com/Prod/v1/api-async?source=ic.gc.ca&query={query}",
            "api_base_url": "https://pb0rytz224.execute-api.eu-west-1.amazonaws.com/Prod/v1/api-async?source=ic.gc.ca",
            "lambda_name": "be-id-sources-dev-beIdSourceFetcher-18ZHUM3DHLOYO",
            "category": "Data Sources/Registry",
            "display_name": "Canadian Federal Corporation",
            "fields": [
                "overview",
                "officership"
            ]
        },
        {
            "artifact": "fetchers.mbr_mt.mbr_mt",
            "fetch_type": "screen-scrap",
            "source_name": "mbr.mt",
            "jurisdictions": [
                "MT"
            ],
            "apiurl": "https://pb0rytz224.execute-api.eu-west-1.amazonaws.com/Prod/v1/api-async?source=mbr.mt&query={query}",
            "api_base_url": "https://pb0rytz224.execute-api.eu-west-1.amazonaws.com/Prod/v1/api-async?source=mbr.mt",
            "lambda_name": "be-id-sources-dev-beIdSourceFetcher-18ZHUM3DHLOYO",
            "category": "Data Sources/Registry",
            "display_name": "Malta Business Registry",
            "fields": [
                "overview"
            ]
        },
        {
            "artifact": "fetchers.cnmv.cnmv",
            "fetch_type": "screen-scrap",
            "source_name": "cnmv.es",
            "jurisdictions": [
                "ES"
            ],
            "apiurl": "https://pb0rytz224.execute-api.eu-west-1.amazonaws.com/Prod/v1/api-async?source=cnmv.es&query={query}",
            "api_base_url": "https://pb0rytz224.execute-api.eu-west-1.amazonaws.com/Prod/v1/api-async?source=cnmv.es",
            "lambda_name": "be-id-sources-dev-beIdSourceFetcher-18ZHUM3DHLOYO",
            "category": "Regulators",
            "display_name": "Spanish Securities Market Commission",
            "fields": [
                "overview"
            ]
        },
        {
            "artifact": "fetchers.bse_sofia.bse_sofia",
            "fetch_type": "screen-scrap",
            "source_name": "bse-sofia.bg",
            "jurisdictions": [
                "BG"
            ],
            "apiurl": "https://pb0rytz224.execute-api.eu-west-1.amazonaws.com/Prod/v1/api-async?source=bse-sofia.bg&query={query}",
            "api_base_url": "https://pb0rytz224.execute-api.eu-west-1.amazonaws.com/Prod/v1/api-async?source=bse-sofia.bg",
            "lambda_name": "be-id-sources-dev-beIdSourceFetcher-18ZHUM3DHLOYO",
            "category": "Stock Exchange",
            "display_name": "Bulgarian Stock Exchange",
            "fields": [
                "overview",
                "documents"
            ]
        },
        {
            "artifact": "fetchers.sase.sase",
            "fetch_type": "screen-scrap",
            "source_name": "sase.ba",
            "jurisdictions": [
                "BA"
            ],
            "apiurl": "https://pb0rytz224.execute-api.eu-west-1.amazonaws.com/Prod/v1/api-async?source=sase.ba&query={query}",
            "api_base_url": "https://pb0rytz224.execute-api.eu-west-1.amazonaws.com/Prod/v1/api-async?source=sase.ba",
            "lambda_name": "be-id-sources-dev-beIdSourceFetcher-18ZHUM3DHLOYO",
            "category": "Stock Exchange",
            "display_name": "Bosnia Stock Exchange",
            "fields": [
                "overview",
                "officership"
            ]
        },
        {
            "artifact": "fetchers.oslobors_no.oslobors",
            "fetch_type": "screen-scrap",
            "source_name": "oslobors.no",
            "jurisdictions": [
                "NO"
            ],
            "apiurl": "https://pb0rytz224.execute-api.eu-west-1.amazonaws.com/Prod/v1/api-async?source=oslobors.no&query={query}",
            "api_base_url": "https://pb0rytz224.execute-api.eu-west-1.amazonaws.com/Prod/v1/api-async?source=oslobors.no",
            "lambda_name": "be-id-sources-dev-beIdSourceFetcher-18ZHUM3DHLOYO",
            "category": "Stock Exchange",
            "display_name": "OSLO Stock Exchange (OSLOBORS)",
            "fields": [
                "overview",
                "officership",
                "documents"
            ]
        },
        {
            "artifact": "fetchers.moex_com.moex",
            "fetch_type": "screen-scrap",
            "source_name": "moex.com",
            "jurisdictions": [
                "RU"
            ],
            "apiurl": "https://pb0rytz224.execute-api.eu-west-1.amazonaws.com/Prod/v1/api-async?source=moex.com&query={query}",
            "api_base_url": "https://pb0rytz224.execute-api.eu-west-1.amazonaws.com/Prod/v1/api-async?source=moex.com",
            "lambda_name": "be-id-sources-dev-beIdSourceFetcher-18ZHUM3DHLOYO",
            "category": "Stock Exchange",
            "display_name": "Moscow Stock Exchange",
            "fields": [
                "overview"
            ]
        },
        {
            "artifact": "fetchers.tmx.tmx",
            "fetch_type": "screen-scrap",
            "source_name": "tmx.com",
            "jurisdictions": [
                "CA"
            ],
            "apiurl": "https://pb0rytz224.execute-api.eu-west-1.amazonaws.com/Prod/v1/api-async?source=tmx.com&query={query}",
            "api_base_url": "https://pb0rytz224.execute-api.eu-west-1.amazonaws.com/Prod/v1/api-async?source=tmx.com",
            "lambda_name": "be-id-sources-dev-beIdSourceFetcher-18ZHUM3DHLOYO",
            "category": "Stock Exchange",
            "display_name": "Toronto Stock Exchange",
            "fields": [
                "overview"
            ]
        },
        {
            "artifact": "fetchers.basemarket.basemarket",
            "fetch_type": "screen-scrap",
            "source_name": "basemarket.bg",
            "jurisdictions": [
                "BG"
            ],
            "apiurl": "https://pb0rytz224.execute-api.eu-west-1.amazonaws.com/Prod/v1/api-async?source=basemarket.bg&query={query}",
            "api_base_url": "https://pb0rytz224.execute-api.eu-west-1.amazonaws.com/Prod/v1/api-async?source=basemarket.bg",
            "lambda_name": "be-id-sources-dev-beIdSourceFetcher-18ZHUM3DHLOYO",
            "category": "Stock Exchange",
            "display_name": "Bulgarian BASE Stock Exchange",
            "fields": [
                "overview"
            ]
        },
        {
            "artifact": "fetchers.borzamalta.borzamalta",
            "fetch_type": "screen-scrap",
            "source_name": "borzamalta.com.mt",
            "jurisdictions": [
                "MT"
            ],
            "apiurl": "https://pb0rytz224.execute-api.eu-west-1.amazonaws.com/Prod/v1/api-async?source=borzamalta.com.mt&query={query}",
            "api_base_url": "https://pb0rytz224.execute-api.eu-west-1.amazonaws.com/Prod/v1/api-async?source=borzamalta.com.mt",
            "lambda_name": "be-id-sources-dev-beIdSourceFetcher-18ZHUM3DHLOYO",
            "category": "Stock Exchange",
            "display_name": "Malta Stock Exchange",
            "fields": [
                "overview"
            ]
        },
        {
            "artifact": "fetchers.bse_hu.bse_hu",
            "fetch_type": "screen-scrap",
            "source_name": "bse.hu",
            "jurisdictions": [
                "HU"
            ],
            "apiurl": "https://pb0rytz224.execute-api.eu-west-1.amazonaws.com/Prod/v1/api-async?source=bse.hu&query={query}",
            "api_base_url": "https://pb0rytz224.execute-api.eu-west-1.amazonaws.com/Prod/v1/api-async?source=bse.hu",
            "lambda_name": "be-id-sources-dev-beIdSourceFetcher-18ZHUM3DHLOYO",
            "category": "Stock Exchange",
            "display_name": "Hungary Stock Exchange",
            "fields": [
                "overview",
                "officership",
                "shareholders"
            ]
        },
        {
            "artifact": "fetchers.mse_mk.mse_mk",
            "fetch_type": "screen-scrap",
            "source_name": "mse.mk",
            "jurisdictions": [
                "MK"
            ],
            "apiurl": "https://pb0rytz224.execute-api.eu-west-1.amazonaws.com/Prod/v1/api-async?source=mse.mk&query={query}",
            "api_base_url": "https://pb0rytz224.execute-api.eu-west-1.amazonaws.com/Prod/v1/api-async?source=mse.mk",
            "lambda_name": "be-id-sources-dev-beIdSourceFetcher-18ZHUM3DHLOYO",
            "category": "Stock Exchange",
            "display_name": "Macedonia Stock Exchange",
            "fields": [
                "overview",
                "officership",
                "documents"
            ]
        },
        {
            "artifact": "fetchers.bcci.bcci",
            "fetch_type": "screen-scrap",
            "source_name": "bcci.bg",
            "jurisdictions": [
                "BG"
            ],
            "apiurl": "https://pb0rytz224.execute-api.eu-west-1.amazonaws.com/Prod/v1/api-async?source=bcci.bg&query={query}",
            "api_base_url": "https://pb0rytz224.execute-api.eu-west-1.amazonaws.com/Prod/v1/api-async?source=bcci.bg",
            "lambda_name": "be-id-sources-dev-beIdSourceFetcher-18ZHUM3DHLOYO",
            "category": "Trade Registry",
            "display_name": "Bulgari Business Registry",
            "fields": [
                "overview"
            ]
        },
        {
            "artifact": "fetchers.nasdaqomxnordic.nasdaqomxnordic",
            "fetch_type": "screen-scrap",
            "source_name": "nasdaqomxnordic.com",
            "jurisdictions": [
                "LT",
                "DK",
                "FI",
                "IS",
                "SE"
            ],
            "apiurl": "https://pb0rytz224.execute-api.eu-west-1.amazonaws.com/Prod/v1/api-async?source=nasdaqomxnordic.com&query={query}",
            "api_base_url": "https://pb0rytz224.execute-api.eu-west-1.amazonaws.com/Prod/v1/api-async?source=nasdaqomxnordic.com",
            "lambda_name": "be-id-sources-dev-beIdSourceFetcher-18ZHUM3DHLOYO",
            "category": "Stock Exchange",
            "display_name": "NASDAQ Stock Exchange",
            "fields": [
                "overview",
                "documents"
            ]
        },
        {
            "artifact": "fetchers.bankingsupervision_europa_eu.bankingsupervision",
            "fetch_type": "screen-scrap",
            "source_name": "bankingsupervision.europa.eu",
            "jurisdictions": [
                "BE",
                "DE",
                "EE",
                "IE",
                "GR",
                "ES",
                "FR",
                "IT",
                "CY",
                "LV",
                "LT",
                "LU",
                "MT",
                "NL",
                "AT",
                "PT",
                "SI",
                "SK",
                "FI"
            ],
            "apiurl": "https://pb0rytz224.execute-api.eu-west-1.amazonaws.com/Prod/v1/api-async?source=bankingsupervision.europa.eu&query={query}",
            "api_base_url": "https://pb0rytz224.execute-api.eu-west-1.amazonaws.com/Prod/v1/api-async?source=bankingsupervision.europa.eu",
            "lambda_name": "be-id-sources-dev-beIdSourceFetcher-18ZHUM3DHLOYO",
            "category": "Regulators",
            "display_name": "European Central Bank",
            "fields": [
                "overview"
            ]
        },
        {
            "artifact": "fetchers.bnb_bg.bnb_bg",
            "fetch_type": "screen-scrap",
            "source_name": "bnb.bg",
            "jurisdictions": [
                "BG"
            ],
            "apiurl": "https://pb0rytz224.execute-api.eu-west-1.amazonaws.com/Prod/v1/api-async?source=bnb.bg&query={query}",
            "api_base_url": "https://pb0rytz224.execute-api.eu-west-1.amazonaws.com/Prod/v1/api-async?source=bnb.bg",
            "lambda_name": "be-id-sources-dev-beIdSourceFetcher-18ZHUM3DHLOYO",
            "category": "Regulators",
            "display_name": "Bulgarian National Bank",
            "fields": [
                "overview"
            ]
        },
        {
            "artifact": "fetchers.apra.apra",
            "fetch_type": "screen-scrap",
            "source_name": "apra.gov.au",
            "jurisdictions": [
                "AU"
            ],
            "apiurl": "https://pb0rytz224.execute-api.eu-west-1.amazonaws.com/Prod/v1/api-async?source=apra.gov.au&query={query}",
            "api_base_url": "https://pb0rytz224.execute-api.eu-west-1.amazonaws.com/Prod/v1/api-async?source=apra.gov.au",
            "lambda_name": "be-id-sources-dev-beIdSourceFetcher-18ZHUM3DHLOYO",
            "category": "Regulators",
            "display_name": "Australian Prudential Regulation Authority",
            "fields": [
                "overview",
                "documents"
            ]
        },
        {
            "artifact": "fetchers.eservices.eservices",
            "fetch_type": "screen-scrap",
            "source_name": "eservices.mas.gov.sg",
            "jurisdictions": [
                "SG"
            ],
            "apiurl": "https://pb0rytz224.execute-api.eu-west-1.amazonaws.com/Prod/v1/api-async?source=eservices.mas.gov.sg&query={query}",
            "api_base_url": "https://pb0rytz224.execute-api.eu-west-1.amazonaws.com/Prod/v1/api-async?source=eservices.mas.gov.sg",
            "lambda_name": "be-id-sources-dev-beIdSourceFetcher-18ZHUM3DHLOYO",
            "category": "Regulators",
            "display_name": "Monetary Authority of Singapore",
            "fields": [
                "overview",
                "officership"
            ]
        },
        {
            "artifact": "fetchers.cnsf.cnsf",
            "fetch_type": "screen-scrap",
            "source_name": "cnsf.gob.mx",
            "jurisdictions": [
                "MX"
            ],
            "apiurl": "https://pb0rytz224.execute-api.eu-west-1.amazonaws.com/Prod/v1/api-async?source=cnsf.gob.mx&query={query}",
            "api_base_url": "https://pb0rytz224.execute-api.eu-west-1.amazonaws.com/Prod/v1/api-async?source=cnsf.gob.mx",
            "lambda_name": "be-id-sources-dev-beIdSourceFetcher-18ZHUM3DHLOYO",
            "category": "Regulators",
            "display_name": "The National Insurance and Bonding Commission",
            "fields": [
                "overview",
                "officership"
            ]
        },
        {
            "artifact": "fetchers.finma.finma",
            "fetch_type": "screen-scrap",
            "source_name": "finma.ch",
            "jurisdictions": [
                "CH"
            ],
            "apiurl": "https://pb0rytz224.execute-api.eu-west-1.amazonaws.com/Prod/v1/api-async?source=finma.ch&query={query}",
            "api_base_url": "https://pb0rytz224.execute-api.eu-west-1.amazonaws.com/Prod/v1/api-async?source=finma.ch",
            "lambda_name": "be-id-sources-dev-beIdSourceFetcher-18ZHUM3DHLOYO",
            "category": "Regulators",
            "display_name": "FINMA Public",
            "fields": [
                "overview"
            ]
        },
        {
            "artifact": "fetchers.nasdaq.nasdaq",
            "fetch_type": "screen-scrap",
            "source_name": "nasdaq.com",
            "jurisdictions": [
                "US"
            ],
            "apiurl": "https://pb0rytz224.execute-api.eu-west-1.amazonaws.com/Prod/v1/api-async?source=nasdaq.com&query={query}",
            "api_base_url": "https://pb0rytz224.execute-api.eu-west-1.amazonaws.com/Prod/v1/api-async?source=nasdaq.com",
            "lambda_name": "be-id-sources-dev-beIdSourceFetcher-18ZHUM3DHLOYO",
            "category": "Stock Exchange",
            "display_name": "NASDAQ",
            "fields": [
                "overview",
                "graph:shareholders"
            ]
        },
        {
            "artifact": "fetchers.regafi.regafi",
            "fetch_type": "screen-scrap",
            "source_name": "regafi.fr",
            "jurisdictions": [
                "FR"
            ],
            "apiurl": "https://pb0rytz224.execute-api.eu-west-1.amazonaws.com/Prod/v1/api-async?source=regafi.fr&query={query}",
            "api_base_url": "https://pb0rytz224.execute-api.eu-west-1.amazonaws.com/Prod/v1/api-async?source=regafi.fr",
            "lambda_name": "be-id-sources-dev-beIdSourceFetcher-18ZHUM3DHLOYO",
            "category": "Regulators",
            "display_name": "France Prudential Control Authority",
            "fields": [
                "overview"
            ]
        },
        {
            "artifact": "fetchers.cninfo.cninfo",
            "fetch_type": "screen-scrap",
            "source_name": "szse.cn",
            "jurisdictions": [
                "CN"
            ],
            "apiurl": "https://pb0rytz224.execute-api.eu-west-1.amazonaws.com/Prod/v1/api-async?source=szse.cn&query={query}",
            "api_base_url": "https://pb0rytz224.execute-api.eu-west-1.amazonaws.com/Prod/v1/api-async?source=szse.cn",
            "lambda_name": "be-id-sources-dev-beIdSourceFetcher-18ZHUM3DHLOYO",
            "category": "Stock Exchange",
            "display_name": "China Stock Exchange",
            "fields": [
                "overview",
                "officership",
                "graph:shareholders"
            ]
        },
        {
            "artifact": "fetchers.fi_se.fi_se",
            "fetch_type": "screen-scrap",
            "source_name": "fi.se",
            "jurisdictions": [
                "SE"
            ],
            "apiurl": "https://pb0rytz224.execute-api.eu-west-1.amazonaws.com/Prod/v1/api-async?source=fi.se&query={query}",
            "api_base_url": "https://pb0rytz224.execute-api.eu-west-1.amazonaws.com/Prod/v1/api-async?source=fi.se",
            "lambda_name": "be-id-sources-dev-beIdSourceFetcher-18ZHUM3DHLOYO",
            "category": "Regulators",
            "display_name": "Finansinspektionen",
            "fields": [
                "overview"
            ]
        },
        {
            "artifact": "fetchers.werkenntdenbesten.werkenntdenbesten",
            "fetch_type": "screen-scrap",
            "source_name": "werkenntdenbesten.de",
            "jurisdictions": [
                "DE"
            ],
            "apiurl": "https://pb0rytz224.execute-api.eu-west-1.amazonaws.com/Prod/v1/api-async?source=werkenntdenbesten.de&query={query}",
            "api_base_url": "https://pb0rytz224.execute-api.eu-west-1.amazonaws.com/Prod/v1/api-async?source=werkenntdenbesten.de",
            "lambda_name": "be-id-sources-dev-beIdSourceFetcher-18ZHUM3DHLOYO",
            "category": "Company Directory",
            "display_name": "Werkenntdenbesten",
            "fields": [
                "overview"
            ]
        },
        {
            "artifact": "fetchers.tietopalvelu.tietopalvelu",
            "fetch_type": "screen-scrap",
            "source_name": "tietopalvelu.ytj.fi",
            "jurisdictions": [
                "FI"
            ],
            "apiurl": "https://pb0rytz224.execute-api.eu-west-1.amazonaws.com/Prod/v1/api-async?source=tietopalvelu.ytj.fi&query={query}",
            "api_base_url": "https://pb0rytz224.execute-api.eu-west-1.amazonaws.com/Prod/v1/api-async?source=tietopalvelu.ytj.fi",
            "lambda_name": "be-id-sources-dev-beIdSourceFetcher-18ZHUM3DHLOYO",
            "category": "Data Sources/Registry",
            "display_name": "YTJ The business information system",
            "fields": [
                "overview"
            ]
        },
        {
            "artifact": "fetchers.caymen_islands.caymen_islands",
            "fetch_type": "screen-scrap",
            "source_name": "cima.ky",
            "jurisdictions": [
                "KT"
            ],
            "apiurl": "https://pb0rytz224.execute-api.eu-west-1.amazonaws.com/Prod/v1/api-async?source=cima.ky&query={query}",
            "api_base_url": "https://pb0rytz224.execute-api.eu-west-1.amazonaws.com/Prod/v1/api-async?source=cima.ky",
            "lambda_name": "be-id-sources-dev-beIdSourceFetcher-18ZHUM3DHLOYO",
            "category": "Regulators",
            "display_name": "Caymen Islands Authority",
            "fields": [
                "overview"
            ]
        },
        {
            "artifact": "fetchers.abr_business_gov_au.abr_business_gov_au",
            "fetch_type": "screen-scrap",
            "source_name": "abr.business.gov.au",
            "jurisdictions": [
                "AU"
            ],
            "apiurl": "https://pb0rytz224.execute-api.eu-west-1.amazonaws.com/Prod/v1/api-async?source=abr.business.gov.au&query={query}",
            "api_base_url": "https://pb0rytz224.execute-api.eu-west-1.amazonaws.com/Prod/v1/api-async?source=abr.business.gov.au",
            "lambda_name": "be-id-sources-dev-beIdSourceFetcher-18ZHUM3DHLOYO",
            "category": "Data Sources/Registry",
            "display_name": "ABN Lookup",
            "fields": [
                "overview"
            ]
        },
        {
            "artifact": "Selenium Fetchers-Internal Artifact",
            "source_name": "International Registers",
            "fetch_type": "screen scrap",
            "jurisdictions": [
                "MH"
            ],
            "apiurl": "https://7ghrcw72te.execute-api.eu-west-1.amazonaws.com/Prod/v1/api-async?source=register-iri.com&query={query}",
            "api_base_url": "https://7ghrcw72te.execute-api.eu-west-1.amazonaws.com/Prod/v1/api-async?source=register-iri.com",
            "lambda_name": "",
            "display_name": "International Registers",
            "category": "Global Company Register",
            "fields": [
                "overview"
            ]
        },
        {
            "artifact": "Selenium Fetchers-Internal Artifact",
            "source_name": "register.fca.org.uk",
            "fetch_type": "screen scrap",
            "jurisdictions": [
                "GB"
            ],
            "apiurl": "https://7ghrcw72te.execute-api.eu-west-1.amazonaws.com/Prod/v1/api-async?source=register.fca.org.uk&query={query}",
            "api_base_url": "https://7ghrcw72te.execute-api.eu-west-1.amazonaws.com/Prod/v1/api-async?source=register.fca.org.uk",
            "lambda_name": "",
            "display_name": "Financial Conduct Authority",
            "category": "Regulators",
            "fields": [
                "overview",
                "officership"
            ]
        },
        {
            "artifact": "Selenium Fetchers-Internal Artifact",
            "source_name": "firmen-in-bayern.de",
            "fetch_type": "screen scrap",
            "jurisdictions": [
                "DE"
            ],
            "apiurl": "https://7ghrcw72te.execute-api.eu-west-1.amazonaws.com/Prod/v1/api-async?source=firmen-in-bayern.de&query={query}",
            "api_base_url": "https://7ghrcw72te.execute-api.eu-west-1.amazonaws.com/Prod/v1/api-async?source=firmen-in-bayern.de",
            "lambda_name": "",
            "display_name": "Firmen Germany",
            "category": "Regulators",
            "fields": [
                "overview"
            ]
        },
        {
            "artifact": "Selenium Fetchers-Internal Artifact",
            "source_name": "registroimprese.it",
            "fetch_type": "screen scrap",
            "jurisdictions": [
                "IT"
            ],
            "apiurl": "https://7ghrcw72te.execute-api.eu-west-1.amazonaws.com/Prod/v1/api-async?source=registroimprese.it&query={query}",
            "api_base_url": "https://7ghrcw72te.execute-api.eu-west-1.amazonaws.com/Prod/v1/api-async?source=registroimprese.it",
            "lambda_name": "",
            "display_name": "Registry Data Field",
            "category": "Data Sources/Registry",
            "fields": [
                "overview"
            ]
        },
        {
            "artifact": "Selenium Fetchers-Internal Artifact",
            "source_name": "gfsc.gg",
            "fetch_type": "screen scrap",
            "jurisdictions": [
                "GG"
            ],
            "apiurl": "https://7ghrcw72te.execute-api.eu-west-1.amazonaws.com/Prod/v1/api-async?source=gfsc.gg&query={query}",
            "api_base_url": "https://7ghrcw72te.execute-api.eu-west-1.amazonaws.com/Prod/v1/api-async?source=gfsc.gg",
            "lambda_name": "",
            "display_name": "Guernsey Financial Services Commission",
            "category": "Regulators",
            "fields": [
                "overview"
            ]
        },
        {
            "artifact": "Selenium Fetchers-Internal Artifact",
            "source_name": "firmen-in-berlin.com",
            "fetch_type": "screen scrap",
            "jurisdictions": [
                "DE"
            ],
            "apiurl": "https://7ghrcw72te.execute-api.eu-west-1.amazonaws.com/Prod/v1/api-async?source=firmen-in-berlin.com&query={query}",
            "api_base_url": "https://7ghrcw72te.execute-api.eu-west-1.amazonaws.com/Prod/v1/api-async?source=firmen-in-berlin.com",
            "lambda_name": "",
            "display_name": "Firmen in Berlin, Germany",
            "category": "Regulators",
            "fields": [
                "overview"
            ]
        },
        {
            "artifact": null,
            "source_name": "BST",
            "fetch_type": "Athena",
            "jurisdictions": [
                "ANY"
            ],
            "apiurl": "https://evlhbsyffc.execute-api.eu-west-1.amazonaws.com/Prod/v1/",
            "api_base_url": "https://evlhbsyffc.execute-api.eu-west-1.amazonaws.com/Prod/v1/organizations-async/",
            "lambda_name": "bvd-source-proxy-athena-bvd-searchForOrganization-GF90TOG8PXWT",
            "display_name": "BST",
            "category": "Global Company Register",
            "fields": [
                "overview",
                "officership",
                "shareholders",
                "owners",
                "subsidiaries",
                "branches",
                "graph:shareholders",
                "graph:subsidiaries"
            ]
        }
    ]
}
