{
  "results": [
    {
      "detail_id": 305,
      "changes": [
        {
          "type": "insert",
          "_links": "http://ams-api.sparta.xara.ai:80/histdata?detail_id=282&revision=565"
        }
      ],
      "entity_type": "person",
      "date_of_birth": "",
      "name": "Saddam Hussein",
      "entity_id": "330b8add17f146a48d586030630e1081_p_1",
      "screening_type": "SSB",
      "request_id": "330b8add17f146a48d586030630e1081",
      "results": {
        "@context": {
          "behance.net": [
            {
              "credibility": 0,
              "value": "http://schema.org"
            }
          ],
          "biography.com": [
            {
              "credibility": 0,
              "value": "http://schema.org"
            }
          ],
          "imdb.com": [
            {
              "credibility": 0,
              "value": "http://schema.org"
            }
          ],
          "melissa.com": [
            {
              "credibility": 0,
              "value": "http://schema.org"
            },
            {
              "credibility": 0,
              "value": "http://schema.org"
            },
            {
              "credibility": 0,
              "value": "http://schema.org"
            },
            {
              "credibility": 0,
              "value": "http://schema.org"
            },
            {
              "credibility": 0,
              "value": "http://schema.org"
            }
          ],
          "peoplelooker.com": [
            {
              "credibility": 0,
              "value": "http://schema.org"
            }
          ],
          "plurk.com": [
            {
              "credibility": 0,
              "value": "http://schema.org"
            }
          ],
          "twitter.com": [
            {
              "credibility": 0,
              "value": "http://schema.org"
            },
            {
              "credibility": 0,
              "value": "http://schema.org"
            },
            {
              "credibility": 0,
              "value": "http://schema.org"
            },
            {
              "credibility": 0,
              "value": "http://schema.org"
            },
            {
              "credibility": 0,
              "value": "http://schema.org"
            },
            {
              "credibility": 0,
              "value": "http://schema.org"
            },
            {
              "credibility": 0,
              "value": "http://schema.org"
            },
            {
              "credibility": 0,
              "value": "http://schema.org"
            },
            {
              "credibility": 0,
              "value": "http://schema.org"
            }
          ],
          "wikipedia.com": [
            {
              "credibility": 0,
              "value": "http://schema.org"
            }
          ]
        },
        "additional_name": {
          "biography.com": [
            {
              "credibility": 0,
              "value": [
                "Saddam Husayn",
                "Saddam Hussein",
                "Saddam Hussein Abd al-Majid al-Tikriti"
              ]
            }
          ]
        },
        "address": {
          "behance.net": [
            {
              "credibility": 0,
              "value": [
                {
                  "address_country": "AF",
                  "address_locality": "Afghanistan",
                  "address_region": "",
                  "entity_type": "PostalAddress"
                }
              ]
            }
          ],
          "melissa.com": [
            {
              "credibility": 0,
              "value": [
                {
                  "address_region": "OH",
                  "city": "Cleveland",
                  "country": "USA",
                  "entity_type": "PostalAddress",
                  "postal_code": "44111-1833",
                  "street_address": "3023 W 101st St"
                }
              ]
            },
            {
              "credibility": 0,
              "value": [
                {
                  "address_region": "MI",
                  "city": "Roseville",
                  "country": "USA",
                  "entity_type": "PostalAddress",
                  "postal_code": "48066-1445",
                  "street_address": "16070 Flanagan St"
                }
              ]
            },
            {
              "credibility": 0,
              "value": [
                {
                  "address_region": "DC",
                  "city": "Washington",
                  "country": "USA",
                  "entity_type": "PostalAddress",
                  "postal_code": "20500-0003",
                  "street_address": "1600 Pennsylvania Ave NW"
                }
              ]
            },
            {
              "credibility": 0,
              "value": [
                {
                  "address_region": "CO",
                  "city": "Denver",
                  "country": "USA",
                  "entity_type": "PostalAddress",
                  "postal_code": "80246-1030",
                  "street_address": "111 S Cherry St"
                }
              ]
            },
            {
              "credibility": 0,
              "value": [
                {
                  "address_region": "MA",
                  "city": "Cambridge",
                  "country": "USA",
                  "entity_type": "PostalAddress",
                  "postal_code": "02138-1929",
                  "street_address": "138 Irving St"
                }
              ]
            }
          ],
          "peoplelooker.com": [
            {
              "credibility": 0,
              "value": [
                {
                  "address_locality": "BUFFALO",
                  "address_region": "NY",
                  "country": "USA",
                  "entity_type": "PostalAddress"
                },
                {
                  "address_locality": "BUFFALO",
                  "address_region": "NY",
                  "country": "USA",
                  "entity_type": "PostalAddress"
                }
              ]
            }
          ],
          "plurk.com": [
            {
              "credibility": 0,
              "value": [
                {
                  "city": "Taipei",
                  "country": "Taiwan",
                  "entity_type": "PostalAddress"
                }
              ]
            }
          ],
          "twitter.com": [
            {
              "credibility": 0,
              "value": [
                {
                  "address_locality": "Amman",
                  "entity_type": "PostalAddress"
                }
              ]
            },
            {
              "credibility": 0,
              "value": [
                {
                  "address_locality": "Amman",
                  "entity_type": "PostalAddress"
                }
              ]
            },
            {
              "credibility": 0,
              "value": [
                {
                  "address_locality": "Amman",
                  "entity_type": "PostalAddress"
                }
              ]
            },
            {
              "credibility": 0,
              "value": [
                {
                  "address_locality": "Amman",
                  "entity_type": "PostalAddress"
                }
              ]
            },
            {
              "credibility": 0,
              "value": [
                {
                  "address_locality": "Amman",
                  "entity_type": "PostalAddress"
                }
              ]
            },
            {
              "credibility": 0,
              "value": [
                {
                  "address_locality": "Amman",
                  "entity_type": "PostalAddress"
                }
              ]
            },
            {
              "credibility": 0,
              "value": [
                {
                  "address_locality": "Amman",
                  "entity_type": "PostalAddress"
                }
              ]
            },
            {
              "credibility": 0,
              "value": [
                {
                  "address_locality": "Amman",
                  "entity_type": "PostalAddress"
                }
              ]
            },
            {
              "credibility": 0,
              "value": [
                {
                  "address_locality": "Amman",
                  "entity_type": "PostalAddress"
                }
              ]
            }
          ]
        },
        "children": {
          "wikipedia.com": [
            {
              "credibility": 0,
              "value": [
                {
                  "entity_type": "Person",
                  "first_name": "Uday",
                  "last_name": "(deceased)"
                },
                {
                  "entity_type": "Person",
                  "first_name": "Qusay",
                  "last_name": "(deceased)"
                },
                {
                  "entity_type": "Person",
                  "first_name": "Raghad"
                },
                {
                  "entity_type": "Person",
                  "first_name": "Rana"
                },
                {
                  "entity_type": "Person",
                  "first_name": "Hala"
                }
              ]
            }
          ]
        },
        "date_of_birth": {
          "biography.com": [
            {
              "credibility": 0,
              "value": "1937-04-28"
            }
          ],
          "imdb.com": [
            {
              "credibility": 0,
              "value": "1937-4-28"
            }
          ],
          "wikipedia.com": [
            {
              "credibility": 0,
              "value": "1937-04-28"
            }
          ]
        },
        "description": {
          "biography.com": [
            {
              "credibility": 0,
              "value": "Saddam Hussein was president of Iraq for more than two decades and is seen as a figurehead of the country's military conflicts with Iran and the United States."
            }
          ],
          "twitter.com": [
            {
              "credibility": 0,
              "value": "“Relax, guy. I kind of love this asshole @Drugsrnotc00l.”SouthParkRP [This is a parody account.]"
            },
            {
              "credibility": 0,
              "value": "Research Fellow/Program Officer @CRSSpak | Development Economist | Policy Analyst | writer | Quaidian | PIDEAN | avid reader | coffee lover"
            },
            {
              "credibility": 0,
              "value": "The last good man"
            },
            {
              "credibility": 0,
              "value": "My official twitter account. Twitter asli. Twitter yang kemaren (@saddamaddas) sudah tidak bisa dipakai."
            },
            {
              "credibility": 0,
              "value": "Yes, this is my toilet.\n\nJust down here hanging with my pal H.W. (He apologized) parody. Gold toilet memorial parody."
            },
            {
              "credibility": 0,
              "value": ""
            },
            {
              "credibility": 0,
              "value": ""
            },
            {
              "credibility": 0,
              "value": "https://t.co/TRFPL9BCfZ in Remote Sensing. Geospatial enthusiast. R-User. WCS- Indonesia Program. Conservation Evidence Unit."
            },
            {
              "credibility": 0,
              "value": "leader of the glorious nation of Iraq and CEO of Netflix (parody)"
            }
          ],
          "wikipedia.com": [
            {
              "credibility": 0,
              "value": " "
            }
          ]
        },
        "entity_type": "person",
        "family_name": {
          "behance.net": [
            {
              "credibility": 0,
              "value": "Hussein"
            }
          ],
          "imdb.com": [
            {
              "credibility": 0,
              "value": "Hussein"
            }
          ],
          "melissa.com": [
            {
              "credibility": 0,
              "value": "Hussein"
            },
            {
              "credibility": 0,
              "value": "Hussein"
            },
            {
              "credibility": 0,
              "value": "Hussein"
            },
            {
              "credibility": 0,
              "value": "Hussein"
            },
            {
              "credibility": 0,
              "value": "Hussein"
            }
          ],
          "peoplelooker.com": [
            {
              "credibility": 0,
              "value": "HUSSEIN"
            }
          ],
          "plurk.com": [
            {
              "credibility": 0,
              "value": "Hussein"
            }
          ],
          "twitter.com": [
            {
              "credibility": 0,
              "value": "Hussein"
            },
            {
              "credibility": 0,
              "value": "Hussein"
            },
            {
              "credibility": 0,
              "value": "Hussein"
            },
            {
              "credibility": 0,
              "value": "Hussein"
            },
            {
              "credibility": 0,
              "value": "Hussein"
            },
            {
              "credibility": 0,
              "value": "hussein"
            },
            {
              "credibility": 0,
              "value": "hussein"
            },
            {
              "credibility": 0,
              "value": "Hussein"
            },
            {
              "credibility": 0,
              "value": "Hussein"
            }
          ]
        },
        "first_name": {
          "behance.net": [
            {
              "credibility": 0,
              "value": "Saddam"
            }
          ],
          "biography.com": [
            {
              "credibility": 0,
              "value": "Saddam Hussein"
            }
          ],
          "imdb.com": [
            {
              "credibility": 0,
              "value": "Saddam"
            }
          ],
          "melissa.com": [
            {
              "credibility": 0,
              "value": "Saddam"
            },
            {
              "credibility": 0,
              "value": "Saddam"
            },
            {
              "credibility": 0,
              "value": "Saddam"
            },
            {
              "credibility": 0,
              "value": "Saddam"
            },
            {
              "credibility": 0,
              "value": "Saddam"
            }
          ],
          "peoplelooker.com": [
            {
              "credibility": 0,
              "value": "SADDAM"
            }
          ],
          "plurk.com": [
            {
              "credibility": 0,
              "value": "Saddam"
            }
          ],
          "twitter.com": [
            {
              "credibility": 0,
              "value": "Saddam"
            },
            {
              "credibility": 0,
              "value": "Saddam"
            },
            {
              "credibility": 0,
              "value": "Saddam"
            },
            {
              "credibility": 0,
              "value": "Saddam"
            },
            {
              "credibility": 0,
              "value": "Saddam"
            },
            {
              "credibility": 0,
              "value": "Saddam"
            },
            {
              "credibility": 0,
              "value": "Saddam"
            },
            {
              "credibility": 0,
              "value": "Saddam"
            },
            {
              "credibility": 0,
              "value": "Saddam"
            }
          ]
        },
        "gender": {
          "plurk.com": [
            {
              "credibility": 0,
              "value": "female"
            }
          ]
        },
        "height": {
          "imdb.com": [
            {
              "credibility": 0,
              "value": "6' 1¼\" (1.86 m)"
            }
          ]
        },
        "image": {
          "biography.com": [
            {
              "credibility": 0,
              "value": "https://www.biography.com/.image/ar_1:1%2Cc_fill%2Ccs_srgb%2Cg_face%2Cq_auto:good%2Cw_300/MTE1ODA0OTcxNjY3Nzg1MjI5/saddam-hussein-9347918-1-402.jpg"
            }
          ],
          "imdb.com": [
            {
              "credibility": 0,
              "value": "https://m.media-amazon.com/images/M/MV5BMTg5NzY4MjEwNF5BMl5BanBnXkFtZTcwMDE3NDAzOA@@._V1_UY317_CR25,0,214,317_AL_.jpg"
            }
          ],
          "plurk.com": [
            {
              "credibility": 0,
              "value": "https://s.plurk.com/static/6a7b744055ac7ccf2beeff563c5270f6.gif"
            }
          ],
          "twitter.com": [
            {
              "credibility": 0,
              "value": "http://pbs.twimg.com/profile_images/1192272948033400832/RopZ6Lu-_normal.jpg"
            },
            {
              "credibility": 0,
              "value": "http://pbs.twimg.com/profile_images/1192744076732436481/4861zJjs_normal.jpg"
            },
            {
              "credibility": 0,
              "value": "http://pbs.twimg.com/profile_images/1228007361119506433/id5feypa_normal.jpg"
            },
            {
              "credibility": 0,
              "value": "http://pbs.twimg.com/profile_images/662024743860592641/RedYCmPE_normal.jpg"
            },
            {
              "credibility": 0,
              "value": "http://pbs.twimg.com/profile_images/1213657581798993921/c3IKOfyh_normal.jpg"
            },
            {
              "credibility": 0,
              "value": "http://pbs.twimg.com/profile_images/885899778999103492/MTanEG-M_normal.jpg"
            },
            {
              "credibility": 0,
              "value": "http://pbs.twimg.com/profile_images/1003782467227185157/8WqpgzcJ_normal.jpg"
            },
            {
              "credibility": 0,
              "value": "http://pbs.twimg.com/profile_images/1171919273465303040/i46k7Pdz_normal.jpg"
            },
            {
              "credibility": 0,
              "value": "http://pbs.twimg.com/profile_images/1161731391903674368/eQxLU3Uy_normal.jpg"
            }
          ]
        },
        "link": {
          "twitter.com": [
            {
              "credibility": 0,
              "value": "https://twitter.com/ComeOnSatan"
            },
            {
              "credibility": 0,
              "value": "https://twitter.com/saddampide"
            },
            {
              "credibility": 0,
              "value": "https://twitter.com/OodoIkenna"
            },
            {
              "credibility": 0,
              "value": "https://twitter.com/saddamaddas8"
            },
            {
              "credibility": 0,
              "value": "https://twitter.com/Real_Iraqi_Ldr"
            },
            {
              "credibility": 0,
              "value": "https://twitter.com/sirdamhaskaz"
            },
            {
              "credibility": 0,
              "value": "https://twitter.com/Saaddamgumel"
            },
            {
              "credibility": 0,
              "value": "https://twitter.com/geospasialis"
            },
            {
              "credibility": 0,
              "value": "https://twitter.com/dictator855"
            }
          ]
        },
        "mention_id": {
          "behance.net": [
            {
              "credibility": 0,
              "value": "cGVyc29uL2JlaGFuY2UubmV0L3NlYXJjaC1yZXMtM2RhNDRmMzc2OWVjMGYzMTgzZDU0MzUwYzk1ZDE2ZTMuanNvbl8w"
            }
          ],
          "biography.com": [
            {
              "credibility": 0,
              "value": "cGVyc29uL2Jpb2dyYXBoeS5jb20vc2VhcmNoLXJlcy03OTI3OGUwMmI1MDA5ZGYzMmVkMmJiNzBmMDA4NWI2Mi5qc29uXzA="
            }
          ],
          "imdb.com": [
            {
              "credibility": 0,
              "value": "cGVyc29uL2ltZGIuY29tL3NlYXJjaC1yZXMtYjY1YzEwOTkxODM5OWQxY2Y0ZTEwOTU3M2QwNWY4NDUuanNvbl8w"
            }
          ],
          "melissa.com": [
            {
              "credibility": 0,
              "value": "cGVyc29uL21lbGlzc2EuY29tL3NlYXJjaC1yZXMtMDIxMzExYjk1MWI3YWQ2NTFmYWE5YzBiOTljNjVlNzQuanNvbl8w"
            },
            {
              "credibility": 0,
              "value": "cGVyc29uL21lbGlzc2EuY29tL3NlYXJjaC1yZXMtMDIxMzExYjk1MWI3YWQ2NTFmYWE5YzBiOTljNjVlNzQuanNvbl8x"
            },
            {
              "credibility": 0,
              "value": "cGVyc29uL21lbGlzc2EuY29tL3NlYXJjaC1yZXMtMDIxMzExYjk1MWI3YWQ2NTFmYWE5YzBiOTljNjVlNzQuanNvbl8y"
            },
            {
              "credibility": 0,
              "value": "cGVyc29uL21lbGlzc2EuY29tL3NlYXJjaC1yZXMtMDIxMzExYjk1MWI3YWQ2NTFmYWE5YzBiOTljNjVlNzQuanNvbl8z"
            },
            {
              "credibility": 0,
              "value": "cGVyc29uL21lbGlzc2EuY29tL3NlYXJjaC1yZXMtMDIxMzExYjk1MWI3YWQ2NTFmYWE5YzBiOTljNjVlNzQuanNvbl80"
            }
          ],
          "peoplelooker.com": [
            {
              "credibility": 0,
              "value": "cGVyc29uL3Blb3BsZWxvb2tlci5jb20vc2VhcmNoLXJlcy04MmMwZWExMDVkNGQ3OTA4ZGMzMjBkNmRkNWM3MDlmZi5qc29uXzA="
            }
          ],
          "plurk.com": [
            {
              "credibility": 0,
              "value": "cGVyc29uL3BsdXJrLmNvbS9zZWFyY2gtcmVzLTk1NGY5MTVlNDhhZmQxN2MzNjBjOTBhMzBiZTIxMjQzLmpzb25fMA=="
            }
          ],
          "twitter.com": [
            {
              "credibility": 0,
              "value": "cGVyc29uL3R3aXR0ZXIuY29tL3NlYXJjaC1yZXMtYTgxMDMyOTk2ODExMThiNzNjZjg5YzVhYTNiY2U4ZWYuanNvbl8z"
            },
            {
              "credibility": 0,
              "value": "cGVyc29uL3R3aXR0ZXIuY29tL3NlYXJjaC1yZXMtYTgxMDMyOTk2ODExMThiNzNjZjg5YzVhYTNiY2U4ZWYuanNvbl80"
            },
            {
              "credibility": 0,
              "value": "cGVyc29uL3R3aXR0ZXIuY29tL3NlYXJjaC1yZXMtYTgxMDMyOTk2ODExMThiNzNjZjg5YzVhYTNiY2U4ZWYuanNvbl81"
            },
            {
              "credibility": 0,
              "value": "cGVyc29uL3R3aXR0ZXIuY29tL3NlYXJjaC1yZXMtYTgxMDMyOTk2ODExMThiNzNjZjg5YzVhYTNiY2U4ZWYuanNvbl82"
            },
            {
              "credibility": 0,
              "value": "cGVyc29uL3R3aXR0ZXIuY29tL3NlYXJjaC1yZXMtYTgxMDMyOTk2ODExMThiNzNjZjg5YzVhYTNiY2U4ZWYuanNvbl8xMg=="
            },
            {
              "credibility": 0,
              "value": "cGVyc29uL3R3aXR0ZXIuY29tL3NlYXJjaC1yZXMtYTgxMDMyOTk2ODExMThiNzNjZjg5YzVhYTNiY2U4ZWYuanNvbl8xNA=="
            },
            {
              "credibility": 0,
              "value": "cGVyc29uL3R3aXR0ZXIuY29tL3NlYXJjaC1yZXMtYTgxMDMyOTk2ODExMThiNzNjZjg5YzVhYTNiY2U4ZWYuanNvbl8xNQ=="
            },
            {
              "credibility": 0,
              "value": "cGVyc29uL3R3aXR0ZXIuY29tL3NlYXJjaC1yZXMtYTgxMDMyOTk2ODExMThiNzNjZjg5YzVhYTNiY2U4ZWYuanNvbl8xNg=="
            },
            {
              "credibility": 0,
              "value": "cGVyc29uL3R3aXR0ZXIuY29tL3NlYXJjaC1yZXMtYTgxMDMyOTk2ODExMThiNzNjZjg5YzVhYTNiY2U4ZWYuanNvbl8xOA=="
            }
          ],
          "wikipedia.com": [
            {
              "credibility": 0,
              "value": "cGVyc29uL3dpa2lwZWRpYS5jb20vc2VhcmNoLXJlcy0xOWRkMDE5YTJjYWJhYTFiOGY1NTNjMzI0MGY0Y2ZhYi5qc29uXzA="
            }
          ]
        },
        "name": {
          "behance.net": [
            {
              "credibility": 0,
              "value": "Saddam Hussein"
            }
          ],
          "biography.com": [
            {
              "credibility": 0,
              "value": "Saddam Hussein"
            }
          ],
          "imdb.com": [
            {
              "credibility": 0,
              "value": "Saddam Hussein"
            }
          ],
          "melissa.com": [
            {
              "credibility": 0,
              "value": "Saddam Hussein"
            },
            {
              "credibility": 0,
              "value": "Saddam Hussein"
            },
            {
              "credibility": 0,
              "value": "Saddam Hussein"
            },
            {
              "credibility": 0,
              "value": "Saddam Hussein"
            },
            {
              "credibility": 0,
              "value": "Saddam Hussein"
            }
          ],
          "peoplelooker.com": [
            {
              "credibility": 0,
              "value": "SADDAM HUSSEIN"
            }
          ],
          "plurk.com": [
            {
              "credibility": 0,
              "value": "Saddam Hussein"
            }
          ],
          "twitter.com": [
            {
              "credibility": 0,
              "value": "Saddam Hussein"
            },
            {
              "credibility": 0,
              "value": "Saddam Hussein"
            },
            {
              "credibility": 0,
              "value": "Saddam Hussein"
            },
            {
              "credibility": 0,
              "value": "Saddam Hussein"
            },
            {
              "credibility": 0,
              "value": "Saddam Hussein"
            },
            {
              "credibility": 0,
              "value": "Saddam hussein"
            },
            {
              "credibility": 0,
              "value": "Saddam hussein"
            },
            {
              "credibility": 0,
              "value": "Saddam Hussein"
            },
            {
              "credibility": 0,
              "value": "Saddam Hussein"
            }
          ],
          "wikipedia.com": [
            {
              "credibility": 0,
              "value": "Saddam Hussein"
            }
          ]
        },
        "place_of_birth": {
          "biography.com": [
            {
              "credibility": 0,
              "value": {
                "address": {
                  "country": "Iraq",
                  "entity_type": "PostalAddress",
                  "locality": "Tikrit",
                  "region": "IQ"
                }
              }
            }
          ],
          "imdb.com": [
            {
              "credibility": 0,
              "value": {
                "address": {
                  "country": "Iraq",
                  "entity_type": "PostalAddress",
                  "locality": "al-Awja,  Iraq",
                  "region": "Iraq"
                }
              }
            }
          ],
          "wikipedia.com": [
            {
              "credibility": 0,
              "value": {
                "address": {
                  "city": " Saladin Governorate",
                  "country": " Kingdom of Iraq",
                  "entity_type": "PostalAddress",
                  "street_address": "28 April 1937Al-Awja"
                }
              }
            }
          ]
        },
        "spouse": {
          "wikipedia.com": [
            {
              "credibility": 0,
              "value": [
                {
                  "entity_type": "Person",
                  "first_name": "Sajida",
                  "last_name": "Talfah"
                },
                {
                  "entity_type": "Person",
                  "first_name": "Samira",
                  "last_name": "Shahbandar"
                }
              ]
            }
          ]
        },
        "url": {
          "behance.net": [
            {
              "credibility": 0,
              "value": "https://www.behance.net"
            }
          ],
          "biography.com": [
            {
              "credibility": 0,
              "value": "https://www.biography.com//dictator/saddam-hussein"
            }
          ],
          "imdb.com": [
            {
              "credibility": 0,
              "value": "https://www.imdb.com"
            }
          ],
          "melissa.com": [
            {
              "credibility": 0,
              "value": "https://www.melissa.com"
            },
            {
              "credibility": 0,
              "value": "https://www.melissa.com"
            },
            {
              "credibility": 0,
              "value": "https://www.melissa.com"
            },
            {
              "credibility": 0,
              "value": "https://www.melissa.com"
            },
            {
              "credibility": 0,
              "value": "https://www.melissa.com"
            }
          ],
          "peoplelooker.com": [
            {
              "credibility": 0,
              "value": "https://www.peoplelooker.com"
            }
          ],
          "plurk.com": [
            {
              "credibility": 0,
              "value": "https://www.plurk.com/"
            }
          ],
          "wikipedia.com": [
            {
              "credibility": 0,
              "value": "https://en.wikipedia.org/wiki/Saddam_Hussein"
            }
          ]
        },
        "works_for": {
          "imdb.com": [
            {
              "credibility": 0,
              "value": [
                "Writer",
                "Miscellaneous Crew"
              ]
            }
          ]
        },
        "id": "3de4700edbcac2550af52d7e857749f0",
        "screening": {
          "watchlists": [
            {
              "value": "Saddam  Hussein",
              "confidence": 0.8,
              "algorithm": "exact",
              "attributes": {
                "id": "66096004",
                "date": "05-Dec-2019",
                "gender": "Male",
                "name": "Saddam  Hussein",
                "FirstName": "Saddam",
                "MiddleName": "",
                "lastname": "Hussein",
                "country_citizenship": "Iraq",
                "country_resident": "Iraq",
                "country_jurisdiction": "Iraq",
                "description1": "Politically Exposed Person (PEP)",
                "date_of_birth": "1969-02-17",
                "place_of_birth": "Al Awja,IRAQ",
                "country": [
                  "IRAQ",
                  "Iraq"
                ]
              },
              "entries": [
                {
                  "watchlist_id": "201912052200",
                  "source": "DJW Index",
                  "classification": "Politically Exposed Person (PEP)"
                },
                {
                  "watchlist_id": "201912052200",
                  "source": "DJW Index",
                  "classification": "classification2"
                },
                {
                  "watchlist_id": "201912052200",
                  "source": "DJW Index",
                  "classification": "saasda"
                }
              ]
            },
            {
              "value": "Saddam  Hussein",
              "confidence": 0.8,
              "algorithm": "exact",
              "attributes": {
                "id": "66096004",
                "date": "05-Dec-2019",
                "gender": "Male",
                "name": "Saddam  Hussein",
                "FirstName": "Saddam Hussein",
                "MiddleName": "Abd al-Majid",
                "lastname": "al-Tikriti",
                "country_citizenship": "Iraq",
                "country_resident": "Iraq",
                "country_jurisdiction": "Iraq",
                "description1": "Politically Exposed Person (PEP)",
                "date_of_birth": "1969-02-17",
                "place_of_birth": "Al Awja,IRAQ",
                "country": [
                  "IRAQ",
                  "Iraq"
                ]
              },
              "entries": [
                {
                  "watchlist_id": "201912052200",
                  "source": "DJW Index",
                  "classification": "Politically Exposed Person (PEP)"
                },
                {
                  "watchlist_id": "201912052200",
                  "source": "DJW Index",
                  "classification": "classification2"
                },
                {
                  "watchlist_id": "201912052200",
                  "source": "DJW Index",
                  "classification": "saasda"
                }
              ]
            }
          ],
          "news": {
            "link": "http://35.245.236.83:8300/v1/screening/330b8add17f146a48d586030630e1081_p_1/330b8add17f146a48d586030630e1081_p_1"
          }
        }
      },
      "recorded_date": "2020-03-12-10:35:57"
    }
   
  ]
}
