
                             [
                                    {
                                        "name": "Mr. Daniel Grieder",
                                        "type": "individual",
                                        "officer_role": "Chief Executive Officer",
                                        "status": "Active",
                                         "address": {
                                            "address_line_1": "Europe"
                                        },
                                        "country_of_residence": "",
                                        "occupation": "",
                                        "information_source": "bloomberg.com",
                                        "information_provider": "bloomberg"
                                    },
                                    {
                                       
                                        "name": "Mr. Abdel El Hamri",
                                        "type": "individual",
                                        "address": {
                                            "address_line_1": "Europe"
                                        },
                                        "officer_role": "Head of Global Communications",
                                        "status": "Active",
                                        "occupation": "",
                                       "information_source": "bloomberg.com",
                                        "information_provider": "bloomberg"
                                    },
                                    {
                                        
                                        "name": "Ms. Avery K. Baker",
                                        "type": "individual",
                                      
                                        "officer_role": "Chief Brand Officer, Tommy Hilfiger global",
                                        "status": "Active",
                                        "address": {
                                            "address_line_1": "Europe"
                                        },
                                        "information_source": "bloomberg.com",
                                        "information_provider": "bloomberg"
                                    
                                    },
                                     {
                                        "name": "Mr. MARTIJN HAGMAN",
                                        "type": "individual",
                                        "officer_role": "CFO & COO",
                                        "status": "Active",
                                         "address": {
                                            "address_line_1": "Europe"
                                        },
                                        "country_of_residence": "",
                                        "occupation": "",
                                        "information_source": "global.tommy.com",
                                        "information_provider": "global.tommy"
                                    },
                                    {
                                        "name": "Mr.TOMMY HILFIGER",
                                        "type": "individual",
                                        "officer_role": "Principal Designer",
                                        "status": "Active",
                                         "address": {
                                            "address_line_1": "Europe"
                                        },
                                        "country_of_residence": "",
                                        "occupation": "",
                                        "information_source": "global.tommy.com",
                                        "information_provider": "global.tommy"
                                    },
                                    {
                                        "name": "Kei Fong Chou",
                                        "type": "individual",
                                        "officer_role": " Co-Chairman of the Board Member",
                                        "status": "Active",
                                         "address": {
                                            "address_line_1": "Europe"
                                        },
                                        "country_of_residence": "",
                                        "occupation": "",
                                        "information_source": "bloomberg.com",
                                        "information_provider": "global.tommy"
                                    }
                                    
                                   
                                ]
                           
    