-------------------------------------------------------------------------------
Test set: element.bst.elementexploration.rest.extention.AdvancedSearchServiceImplTest
-------------------------------------------------------------------------------
Tests run: 1, Failures: 0, Errors: 0, Skipped: 0, Time elapsed: 0.614 sec
