<?xml version="1.0" encoding="UTF-8" ?>
<testsuite tests="16" failures="0" name="element.bst.elementexploration.test.extention.transactionintelligence.service.CounterPartyServiceTest" time="0.023" errors="0" skipped="0">
  <properties>
    <property name="java.runtime.name" value="OpenJDK Runtime Environment"/>
    <property name="java.vm.version" value="11.0.6+10-post-Ubuntu-1ubuntu118.04.1"/>
    <property name="sun.boot.library.path" value="/usr/lib/jvm/java-11-openjdk-amd64/lib"/>
    <property name="maven.multiModuleProjectDirectory" value="/home/gobinda/Bitbucket/ehub_rest_ci-test"/>
    <property name="java.vm.vendor" value="Ubuntu"/>
    <property name="java.vendor.url" value="https://ubuntu.com/"/>
    <property name="guice.disable.misplaced.annotation.check" value="true"/>
    <property name="path.separator" value=":"/>
    <property name="java.vm.name" value="OpenJDK 64-Bit Server VM"/>
    <property name="sun.os.patch.level" value="unknown"/>
    <property name="user.country" value="IN"/>
    <property name="sun.java.launcher" value="SUN_STANDARD"/>
    <property name="java.vm.specification.name" value="Java Virtual Machine Specification"/>
    <property name="user.dir" value="/home/gobinda/Bitbucket/ehub_rest_ci-test"/>
    <property name="java.vm.compressedOopsMode" value="Zero based"/>
    <property name="java.runtime.version" value="11.0.6+10-post-Ubuntu-1ubuntu118.04.1"/>
    <property name="java.awt.graphicsenv" value="sun.awt.X11GraphicsEnvironment"/>
    <property name="os.arch" value="amd64"/>
    <property name="java.io.tmpdir" value="/tmp"/>
    <property name="line.separator" value="
"/>
    <property name="java.vm.specification.vendor" value="Oracle Corporation"/>
    <property name="os.name" value="Linux"/>
    <property name="classworlds.conf" value="/usr/share/maven/bin/m2.conf"/>
    <property name="sun.jnu.encoding" value="UTF-8"/>
    <property name="java.library.path" value="/usr/java/packages/lib:/usr/lib/x86_64-linux-gnu/jni:/lib/x86_64-linux-gnu:/usr/lib/x86_64-linux-gnu:/usr/lib/jni:/lib:/usr/lib"/>
    <property name="maven.conf" value="/usr/share/maven/conf"/>
    <property name="jdk.debug" value="release"/>
    <property name="java.class.version" value="55.0"/>
    <property name="java.specification.name" value="Java Platform API Specification"/>
    <property name="sun.management.compiler" value="HotSpot 64-Bit Tiered Compilers"/>
    <property name="os.version" value="5.3.0-46-generic"/>
    <property name="library.jansi.path" value="/usr/share/maven/lib/jansi-native"/>
    <property name="user.home" value="/root"/>
    <property name="user.timezone" value="Asia/Kolkata"/>
    <property name="java.awt.printerjob" value="sun.print.PSPrinterJob"/>
    <property name="file.encoding" value="UTF-8"/>
    <property name="java.specification.version" value="11"/>
    <property name="user.name" value="root"/>
    <property name="java.class.path" value="/usr/share/maven/boot/plexus-classworlds-2.x.jar"/>
    <property name="java.vm.specification.version" value="11"/>
    <property name="sun.arch.data.model" value="64"/>
    <property name="sun.java.command" value="org.codehaus.plexus.classworlds.launcher.Launcher clean install"/>
    <property name="java.home" value="/usr/lib/jvm/java-11-openjdk-amd64"/>
    <property name="user.language" value="en"/>
    <property name="java.specification.vendor" value="Oracle Corporation"/>
    <property name="awt.toolkit" value="sun.awt.X11.XToolkit"/>
    <property name="java.vm.info" value="mixed mode, sharing"/>
    <property name="java.version" value="11.0.6"/>
    <property name="securerandom.source" value="file:/dev/./urandom"/>
    <property name="java.vendor" value="Ubuntu"/>
    <property name="maven.home" value="/usr/share/maven"/>
    <property name="file.separator" value="/"/>
    <property name="java.version.date" value="2020-01-14"/>
    <property name="java.vendor.url.bug" value="https://bugs.launchpad.net/ubuntu/+source/openjdk-lts"/>
    <property name="sun.io.unicode.encoding" value="UnicodeLittle"/>
    <property name="sun.cpu.endian" value="little"/>
    <property name="sun.cpu.isalist" value=""/>
  </properties>
  <testcase classname="element.bst.elementexploration.test.extention.transactionintelligence.service.CounterPartyServiceTest" name="getGeoGraphicAggregatesTest" time="0.004"/>
  <testcase classname="element.bst.elementexploration.test.extention.transactionintelligence.service.CounterPartyServiceTest" name="getViewAllCount_whenTypeIsActivityTest" time="0.001"/>
  <testcase classname="element.bst.elementexploration.test.extention.transactionintelligence.service.CounterPartyServiceTest" name="getViewAllTest" time="0.002"/>
  <testcase classname="element.bst.elementexploration.test.extention.transactionintelligence.service.CounterPartyServiceTest" name="getAlertByScenariosTest" time="0.002"/>
  <testcase classname="element.bst.elementexploration.test.extention.transactionintelligence.service.CounterPartyServiceTest" name="getTopCounterPartiesTest" time="0.002"/>
  <testcase classname="element.bst.elementexploration.test.extention.transactionintelligence.service.CounterPartyServiceTest" name="getActivityTest" time="0.001"/>
  <testcase classname="element.bst.elementexploration.test.extention.transactionintelligence.service.CounterPartyServiceTest" name="getViewAll_whenTypeIsBanksTest" time="0.001"/>
  <testcase classname="element.bst.elementexploration.test.extention.transactionintelligence.service.CounterPartyServiceTest" name="addBankNamesTest" time="0.001"/>
  <testcase classname="element.bst.elementexploration.test.extention.transactionintelligence.service.CounterPartyServiceTest" name="getViewAllCountTest" time="0.001"/>
  <testcase classname="element.bst.elementexploration.test.extention.transactionintelligence.service.CounterPartyServiceTest" name="getBankAggregatesTest" time="0.001"/>
  <testcase classname="element.bst.elementexploration.test.extention.transactionintelligence.service.CounterPartyServiceTest" name="getViewAll_whenTypeIsCountryTest" time="0.001"/>
  <testcase classname="element.bst.elementexploration.test.extention.transactionintelligence.service.CounterPartyServiceTest" name="getGeoGraphicTest" time="0.001"/>
  <testcase classname="element.bst.elementexploration.test.extention.transactionintelligence.service.CounterPartyServiceTest" name="getBankByTypeTest" time="0.002"/>
  <testcase classname="element.bst.elementexploration.test.extention.transactionintelligence.service.CounterPartyServiceTest" name="getCouterPartyAggregatesTest" time="0.001"/>
  <testcase classname="element.bst.elementexploration.test.extention.transactionintelligence.service.CounterPartyServiceTest" name="getViewAllCount_whenTypeIsBankLocationsTest" time="0.001"/>
  <testcase classname="element.bst.elementexploration.test.extention.transactionintelligence.service.CounterPartyServiceTest" name="getBanks" time="0.001"/>
</testsuite>