<?xml version="1.0" encoding="UTF-8" ?>
<testsuite tests="101" failures="0" name="element.bst.elementexploration.test.extention.transactionintelligence.daoImpl.ShareholderDaoTest" time="0.069" errors="0" skipped="0">
  <properties>
    <property name="java.runtime.name" value="OpenJDK Runtime Environment"/>
    <property name="java.vm.version" value="11.0.6+10-post-Ubuntu-1ubuntu118.04.1"/>
    <property name="sun.boot.library.path" value="/usr/lib/jvm/java-11-openjdk-amd64/lib"/>
    <property name="maven.multiModuleProjectDirectory" value="/home/gobinda/Bitbucket/ehub_rest_ci-test"/>
    <property name="java.vm.vendor" value="Ubuntu"/>
    <property name="java.vendor.url" value="https://ubuntu.com/"/>
    <property name="guice.disable.misplaced.annotation.check" value="true"/>
    <property name="path.separator" value=":"/>
    <property name="java.vm.name" value="OpenJDK 64-Bit Server VM"/>
    <property name="sun.os.patch.level" value="unknown"/>
    <property name="user.country" value="IN"/>
    <property name="sun.java.launcher" value="SUN_STANDARD"/>
    <property name="java.vm.specification.name" value="Java Virtual Machine Specification"/>
    <property name="user.dir" value="/home/gobinda/Bitbucket/ehub_rest_ci-test"/>
    <property name="java.vm.compressedOopsMode" value="Zero based"/>
    <property name="java.runtime.version" value="11.0.6+10-post-Ubuntu-1ubuntu118.04.1"/>
    <property name="java.awt.graphicsenv" value="sun.awt.X11GraphicsEnvironment"/>
    <property name="os.arch" value="amd64"/>
    <property name="java.io.tmpdir" value="/tmp"/>
    <property name="line.separator" value="
"/>
    <property name="java.vm.specification.vendor" value="Oracle Corporation"/>
    <property name="os.name" value="Linux"/>
    <property name="classworlds.conf" value="/usr/share/maven/bin/m2.conf"/>
    <property name="sun.jnu.encoding" value="UTF-8"/>
    <property name="java.library.path" value="/usr/java/packages/lib:/usr/lib/x86_64-linux-gnu/jni:/lib/x86_64-linux-gnu:/usr/lib/x86_64-linux-gnu:/usr/lib/jni:/lib:/usr/lib"/>
    <property name="maven.conf" value="/usr/share/maven/conf"/>
    <property name="jdk.debug" value="release"/>
    <property name="java.class.version" value="55.0"/>
    <property name="java.specification.name" value="Java Platform API Specification"/>
    <property name="sun.management.compiler" value="HotSpot 64-Bit Tiered Compilers"/>
    <property name="os.version" value="5.3.0-46-generic"/>
    <property name="library.jansi.path" value="/usr/share/maven/lib/jansi-native"/>
    <property name="user.home" value="/root"/>
    <property name="user.timezone" value="Asia/Kolkata"/>
    <property name="java.awt.printerjob" value="sun.print.PSPrinterJob"/>
    <property name="file.encoding" value="UTF-8"/>
    <property name="java.specification.version" value="11"/>
    <property name="user.name" value="root"/>
    <property name="java.class.path" value="/usr/share/maven/boot/plexus-classworlds-2.x.jar"/>
    <property name="java.vm.specification.version" value="11"/>
    <property name="sun.arch.data.model" value="64"/>
    <property name="sun.java.command" value="org.codehaus.plexus.classworlds.launcher.Launcher clean install"/>
    <property name="java.home" value="/usr/lib/jvm/java-11-openjdk-amd64"/>
    <property name="user.language" value="en"/>
    <property name="java.specification.vendor" value="Oracle Corporation"/>
    <property name="awt.toolkit" value="sun.awt.X11.XToolkit"/>
    <property name="java.vm.info" value="mixed mode, sharing"/>
    <property name="java.version" value="11.0.6"/>
    <property name="securerandom.source" value="file:/dev/./urandom"/>
    <property name="java.vendor" value="Ubuntu"/>
    <property name="maven.home" value="/usr/share/maven"/>
    <property name="file.separator" value="/"/>
    <property name="java.version.date" value="2020-01-14"/>
    <property name="java.vendor.url.bug" value="https://bugs.launchpad.net/ubuntu/+source/openjdk-lts"/>
    <property name="sun.io.unicode.encoding" value="UnicodeLittle"/>
    <property name="sun.cpu.endian" value="little"/>
    <property name="sun.cpu.isalist" value=""/>
  </properties>
  <testcase classname="element.bst.elementexploration.test.extention.transactionintelligence.daoImpl.ShareholderDaoTest" name="getCorporateStructuteByType_whenFailedToExecuteQueryExceptionThrrowTest" time="0.002"/>
  <testcase classname="element.bst.elementexploration.test.extention.transactionintelligence.daoImpl.ShareholderDaoTest" name="getGeographyByScenariosTest" time="0.001"/>
  <testcase classname="element.bst.elementexploration.test.extention.transactionintelligence.daoImpl.ShareholderDaoTest" name="getAlertEntitiesBusinessTypeTest" time="0"/>
  <testcase classname="element.bst.elementexploration.test.extention.transactionintelligence.daoImpl.ShareholderDaoTest" name="getCorporateStructure_whenFailedToExecuteQueryExceptionThrowTest" time="0.001"/>
  <testcase classname="element.bst.elementexploration.test.extention.transactionintelligence.daoImpl.ShareholderDaoTest" name="getShareholder_whenFailedToExecuteQueryExceptionThrowTest" time="0.001"/>
  <testcase classname="element.bst.elementexploration.test.extention.transactionintelligence.daoImpl.ShareholderDaoTest" name="getCorporateStructureByType_whenExceptionThrowTest" time="0.001"/>
  <testcase classname="element.bst.elementexploration.test.extention.transactionintelligence.daoImpl.ShareholderDaoTest" name="getViewAllCorporateStructure_whenIsTransIsFalseTest" time="0.001"/>
  <testcase classname="element.bst.elementexploration.test.extention.transactionintelligence.daoImpl.ShareholderDaoTest" name="getCorporateStructureAggregates_whenTypeIsShareholderTest" time="0.001"/>
  <testcase classname="element.bst.elementexploration.test.extention.transactionintelligence.daoImpl.ShareholderDaoTest" name="getAlertEntitiesGeographyDtoTest" time="0.002"/>
  <testcase classname="element.bst.elementexploration.test.extention.transactionintelligence.daoImpl.ShareholderDaoTest" name="getCorporateStructureTest" time="0.001"/>
  <testcase classname="element.bst.elementexploration.test.extention.transactionintelligence.daoImpl.ShareholderDaoTest" name="getTopFiveAlerts_whenExceptionThrowTest" time="0.001"/>
  <testcase classname="element.bst.elementexploration.test.extention.transactionintelligence.daoImpl.ShareholderDaoTest" name="getShareHolder_whenNoResultExceptionThrowTest" time="0.001"/>
  <testcase classname="element.bst.elementexploration.test.extention.transactionintelligence.daoImpl.ShareholderDaoTest" name="getViewAllTest" time="0"/>
  <testcase classname="element.bst.elementexploration.test.extention.transactionintelligence.daoImpl.ShareholderDaoTest" name="getGeographyAggregatesTest" time="0.001"/>
  <testcase classname="element.bst.elementexploration.test.extention.transactionintelligence.daoImpl.ShareholderDaoTest" name="getShareholderCorporateStructureTest" time="0"/>
  <testcase classname="element.bst.elementexploration.test.extention.transactionintelligence.daoImpl.ShareholderDaoTest" name="getCorporateStructuteByShareholderScenariosTest" time="0.001"/>
  <testcase classname="element.bst.elementexploration.test.extention.transactionintelligence.daoImpl.ShareholderDaoTest" name="getGeographyAlerts_whenExceptionThrowTest" time="0.001"/>
  <testcase classname="element.bst.elementexploration.test.extention.transactionintelligence.daoImpl.ShareholderDaoTest" name="getShareholderCountry_whenFailedToExecuteQueryExceptionThrrowTest" time="0.001"/>
  <testcase classname="element.bst.elementexploration.test.extention.transactionintelligence.daoImpl.ShareholderDaoTest" name="getAlertEntitiesFilter_whenFailedToExecuteQueryExceptionThrrowTest" time="0.001"/>
  <testcase classname="element.bst.elementexploration.test.extention.transactionintelligence.daoImpl.ShareholderDaoTest" name="getShareholderByScenariosTest" time="0.001"/>
  <testcase classname="element.bst.elementexploration.test.extention.transactionintelligence.daoImpl.ShareholderDaoTest" name="getShareHolderTest" time="0.001"/>
  <testcase classname="element.bst.elementexploration.test.extention.transactionintelligence.daoImpl.ShareholderDaoTest" name="getGeographyAlertsTest" time="0.001"/>
  <testcase classname="element.bst.elementexploration.test.extention.transactionintelligence.daoImpl.ShareholderDaoTest" name="getGeographyByTypeTest" time="0.001"/>
  <testcase classname="element.bst.elementexploration.test.extention.transactionintelligence.daoImpl.ShareholderDaoTest" name="getGroupByScenario_whenExceptionThrowTest" time="0.001"/>
  <testcase classname="element.bst.elementexploration.test.extention.transactionintelligence.daoImpl.ShareholderDaoTest" name="getViewAllCorporateStructure_whenExceptionThrowTest" time="0"/>
  <testcase classname="element.bst.elementexploration.test.extention.transactionintelligence.daoImpl.ShareholderDaoTest" name="getAggregates_whenExceptionThrowTest" time="0.001"/>
  <testcase classname="element.bst.elementexploration.test.extention.transactionintelligence.daoImpl.ShareholderDaoTest" name="getGroupByScenarioTest" time="0"/>
  <testcase classname="element.bst.elementexploration.test.extention.transactionintelligence.daoImpl.ShareholderDaoTest" name="getCorporateByTypeTest" time="0"/>
  <testcase classname="element.bst.elementexploration.test.extention.transactionintelligence.daoImpl.ShareholderDaoTest" name="getTopFiveAlertsTest" time="0"/>
  <testcase classname="element.bst.elementexploration.test.extention.transactionintelligence.daoImpl.ShareholderDaoTest" name="getBusinessByTypeTest" time="0.001"/>
  <testcase classname="element.bst.elementexploration.test.extention.transactionintelligence.daoImpl.ShareholderDaoTest" name="getViewAllCorporateStructure_whenExceptionThrowTest1" time="0.001"/>
  <testcase classname="element.bst.elementexploration.test.extention.transactionintelligence.daoImpl.ShareholderDaoTest" name="getViewAllCount_whenIsTransactionIsFalseTest" time="0.001"/>
  <testcase classname="element.bst.elementexploration.test.extention.transactionintelligence.daoImpl.ShareholderDaoTest" name="getAlertEntitiesGeographyDto_whenNoResultExceptionThrowTest" time="0.001"/>
  <testcase classname="element.bst.elementexploration.test.extention.transactionintelligence.daoImpl.ShareholderDaoTest" name="getBusinessAggregatesTest" time="0.001"/>
  <testcase classname="element.bst.elementexploration.test.extention.transactionintelligence.daoImpl.ShareholderDaoTest" name="getGeographyTest" time="0"/>
  <testcase classname="element.bst.elementexploration.test.extention.transactionintelligence.daoImpl.ShareholderDaoTest" name="getAlertEntitiesFilterBasesOnCustomerIdTest" time="0"/>
  <testcase classname="element.bst.elementexploration.test.extention.transactionintelligence.daoImpl.ShareholderDaoTest" name="getCustomerByShareholderScenario_whenFailedToExecuteQueryExceptionThrrowTest" time="0.001"/>
  <testcase classname="element.bst.elementexploration.test.extention.transactionintelligence.daoImpl.ShareholderDaoTest" name="getCountryByType_whenFailedToExecuteQueryExceptionThrrowTest" time="0.001"/>
  <testcase classname="element.bst.elementexploration.test.extention.transactionintelligence.daoImpl.ShareholderDaoTest" name="getViewAllCorporateStructureCount_whenExceptionThrowTest" time="0.001"/>
  <testcase classname="element.bst.elementexploration.test.extention.transactionintelligence.daoImpl.ShareholderDaoTest" name="getShareholderByType_whenFailedToExecuteQueryExceptionThrrowTest" time="0.001"/>
  <testcase classname="element.bst.elementexploration.test.extention.transactionintelligence.daoImpl.ShareholderDaoTest" name="getAlertEntitiesFilterTest" time="0.001"/>
  <testcase classname="element.bst.elementexploration.test.extention.transactionintelligence.daoImpl.ShareholderDaoTest" name="getGeographyAggregate_whenExceptionThrowTest" time="0.001"/>
  <testcase classname="element.bst.elementexploration.test.extention.transactionintelligence.daoImpl.ShareholderDaoTest" name="getShareholderAggregateTest" time="0.001"/>
  <testcase classname="element.bst.elementexploration.test.extention.transactionintelligence.daoImpl.ShareholderDaoTest" name="getAggregatesTest" time="0"/>
  <testcase classname="element.bst.elementexploration.test.extention.transactionintelligence.daoImpl.ShareholderDaoTest" name="getAssociatedAlertsTest" time="0"/>
  <testcase classname="element.bst.elementexploration.test.extention.transactionintelligence.daoImpl.ShareholderDaoTest" name="getShareHolder_whenExceptionThrowTest" time="0"/>
  <testcase classname="element.bst.elementexploration.test.extention.transactionintelligence.daoImpl.ShareholderDaoTest" name="getCustomerByShareholderScenarioTest" time="0"/>
  <testcase classname="element.bst.elementexploration.test.extention.transactionintelligence.daoImpl.ShareholderDaoTest" name="getViewAllCorporateStructure_whenObjectArrayNotContainsStringIn1Test1" time="0"/>
  <testcase classname="element.bst.elementexploration.test.extention.transactionintelligence.daoImpl.ShareholderDaoTest" name="getGeographyByScenarios_whenExceptionThrowTest" time="0.001"/>
  <testcase classname="element.bst.elementexploration.test.extention.transactionintelligence.daoImpl.ShareholderDaoTest" name="getCustomerByCountryScenarioTest" time="0"/>
  <testcase classname="element.bst.elementexploration.test.extention.transactionintelligence.daoImpl.ShareholderDaoTest" name="getShareholderAggregate_whenExceptionThrowTest" time="0.001"/>
  <testcase classname="element.bst.elementexploration.test.extention.transactionintelligence.daoImpl.ShareholderDaoTest" name="getViewAllCorporateStructureTest" time="0.001"/>
  <testcase classname="element.bst.elementexploration.test.extention.transactionintelligence.daoImpl.ShareholderDaoTest" name="getBusinessByType_whenFailedToExecuteQueryExceptionThrrowTest" time="0.001"/>
  <testcase classname="element.bst.elementexploration.test.extention.transactionintelligence.daoImpl.ShareholderDaoTest" name="getViewAllCorporateStructure_whenObjectArrayNotContainsStringIn1AndTransFalseTest1" time="0.001"/>
  <testcase classname="element.bst.elementexploration.test.extention.transactionintelligence.daoImpl.ShareholderDaoTest" name="getCustomerByCountryScenario_whenFailedToExecuteQueryExceptionThrrowTest" time="0.001"/>
  <testcase classname="element.bst.elementexploration.test.extention.transactionintelligence.daoImpl.ShareholderDaoTest" name="getCountryAggregatesTest" time="0.001"/>
  <testcase classname="element.bst.elementexploration.test.extention.transactionintelligence.daoImpl.ShareholderDaoTest" name="getViewAllCorporateStructureCount_whenIsTransactionIsFalseTest" time="0"/>
  <testcase classname="element.bst.elementexploration.test.extention.transactionintelligence.daoImpl.ShareholderDaoTest" name="getAlertEntitiesFilterBasesOnCustomerId_whenFailedToExecuteQueryExceptionThrrowTest" time="0"/>
  <testcase classname="element.bst.elementexploration.test.extention.transactionintelligence.daoImpl.ShareholderDaoTest" name="getShareholderAggregatesTest" time="0"/>
  <testcase classname="element.bst.elementexploration.test.extention.transactionintelligence.daoImpl.ShareholderDaoTest" name="getViewAllCount_whenExceptionThrowTest" time="0.001"/>
  <testcase classname="element.bst.elementexploration.test.extention.transactionintelligence.daoImpl.ShareholderDaoTest" name="getViewAllCountTest" time="0.001"/>
  <testcase classname="element.bst.elementexploration.test.extention.transactionintelligence.daoImpl.ShareholderDaoTest" name="getCustomerByBusinessScenario_whenFailedToExecuteQueryExceptionThrrowTest" time="0.001"/>
  <testcase classname="element.bst.elementexploration.test.extention.transactionintelligence.daoImpl.ShareholderDaoTest" name="getGeographyAlerts_whenNoResultExceptionThrowTest" time="0.001"/>
  <testcase classname="element.bst.elementexploration.test.extention.transactionintelligence.daoImpl.ShareholderDaoTest" name="getAlertEntitiesGeographyDto_whenFailedToExecuteQueryExceptionThrowTest" time="0.001"/>
  <testcase classname="element.bst.elementexploration.test.extention.transactionintelligence.daoImpl.ShareholderDaoTest" name="getCustomerByBusinessScenarioTest" time="0"/>
  <testcase classname="element.bst.elementexploration.test.extention.transactionintelligence.daoImpl.ShareholderDaoTest" name="getAlertEntitiesFilterBasesOnScenariosTest" time="0"/>
  <testcase classname="element.bst.elementexploration.test.extention.transactionintelligence.daoImpl.ShareholderDaoTest" name="getCorporateStructure_whenNoResultExceptionThrowTest" time="0"/>
  <testcase classname="element.bst.elementexploration.test.extention.transactionintelligence.daoImpl.ShareholderDaoTest" name="getShareholderCountryTest" time="0"/>
  <testcase classname="element.bst.elementexploration.test.extention.transactionintelligence.daoImpl.ShareholderDaoTest" name="getGeography_whenFailedToExecuteQueryExceptionThrowTest" time="0.001"/>
  <testcase classname="element.bst.elementexploration.test.extention.transactionintelligence.daoImpl.ShareholderDaoTest" name="getShareholderCorporateStructure_whenFailedToExecuteQueryExceptionThrrowTest" time="0"/>
  <testcase classname="element.bst.elementexploration.test.extention.transactionintelligence.daoImpl.ShareholderDaoTest" name="getAlertEntitiesGeography_whenFailedToExecuteQueryExceptionThrrowTest" time="0"/>
  <testcase classname="element.bst.elementexploration.test.extention.transactionintelligence.daoImpl.ShareholderDaoTest" name="getCountryAggregates_whenFailedToExecuteQueryExceptionThrrowTest" time="0.001"/>
  <testcase classname="element.bst.elementexploration.test.extention.transactionintelligence.daoImpl.ShareholderDaoTest" name="getCorporateStructureAggregates_whenTypeIsGeographyTest" time="0.001"/>
  <testcase classname="element.bst.elementexploration.test.extention.transactionintelligence.daoImpl.ShareholderDaoTest" name="getCorporateStructureAggregatesTest" time="0"/>
  <testcase classname="element.bst.elementexploration.test.extention.transactionintelligence.daoImpl.ShareholderDaoTest" name="getTopFiveAlerts_whenTypeIsGeographyTest" time="0"/>
  <testcase classname="element.bst.elementexploration.test.extention.transactionintelligence.daoImpl.ShareholderDaoTest" name="getGeographyAggregateTest" time="0"/>
  <testcase classname="element.bst.elementexploration.test.extention.transactionintelligence.daoImpl.ShareholderDaoTest" name="getGeographyAggregates_whenExceptionThrowTest" time="0.001"/>
  <testcase classname="element.bst.elementexploration.test.extention.transactionintelligence.daoImpl.ShareholderDaoTest" name="getCorporateStructuteByGeographyScenariosTest" time="0"/>
  <testcase classname="element.bst.elementexploration.test.extention.transactionintelligence.daoImpl.ShareholderDaoTest" name="getViewAllCorporateStructureCountTest" time="0"/>
  <testcase classname="element.bst.elementexploration.test.extention.transactionintelligence.daoImpl.ShareholderDaoTest" name="getShareholderAggregates_whenFailedToExecuteQueryExceptionThrrowTest" time="0.001"/>
  <testcase classname="element.bst.elementexploration.test.extention.transactionintelligence.daoImpl.ShareholderDaoTest" name="getCountryByTypeTest" time="0.001"/>
  <testcase classname="element.bst.elementexploration.test.extention.transactionintelligence.daoImpl.ShareholderDaoTest" name="getViewAll_whenIsTransactionIsFalseTest" time="0.001"/>
  <testcase classname="element.bst.elementexploration.test.extention.transactionintelligence.daoImpl.ShareholderDaoTest" name="getShareholderByScenarios_whenExceptionThrowTest" time="0.001"/>
  <testcase classname="element.bst.elementexploration.test.extention.transactionintelligence.daoImpl.ShareholderDaoTest" name="getCorporateStructureByTypeTest" time="0.001"/>
  <testcase classname="element.bst.elementexploration.test.extention.transactionintelligence.daoImpl.ShareholderDaoTest" name="getAlertEntitiesFilterBasesOnScenarios_whenFailedToExecuteQueryExceptionThrrowTest" time="0.001"/>
  <testcase classname="element.bst.elementexploration.test.extention.transactionintelligence.daoImpl.ShareholderDaoTest" name="getAlertEntitiesGeographyTest" time="0"/>
  <testcase classname="element.bst.elementexploration.test.extention.transactionintelligence.daoImpl.ShareholderDaoTest" name="getShareholderTest" time="0.001"/>
  <testcase classname="element.bst.elementexploration.test.extention.transactionintelligence.daoImpl.ShareholderDaoTest" name="getTopFiveAlerts_whenTypeIsShareholdersTest" time="0.001"/>
  <testcase classname="element.bst.elementexploration.test.extention.transactionintelligence.daoImpl.ShareholderDaoTest" name="getCorporateStructuteByTypeTest" time="0"/>
  <testcase classname="element.bst.elementexploration.test.extention.transactionintelligence.daoImpl.ShareholderDaoTest" name="getCorporateByType_whenFailedToExecuteQueryExceptionThrrowTest" time="0"/>
  <testcase classname="element.bst.elementexploration.test.extention.transactionintelligence.daoImpl.ShareholderDaoTest" name="getBusinessAggregates_whenFailedToExecuteQueryExceptionThrrowTest" time="0"/>
  <testcase classname="element.bst.elementexploration.test.extention.transactionintelligence.daoImpl.ShareholderDaoTest" name="getViewAll_whenExceptionThrowTest" time="0"/>
  <testcase classname="element.bst.elementexploration.test.extention.transactionintelligence.daoImpl.ShareholderDaoTest" name="getAlertEntitiesBusinessType_whenFailedToExecuteQueryExceptionThrrowTest" time="0.001"/>
  <testcase classname="element.bst.elementexploration.test.extention.transactionintelligence.daoImpl.ShareholderDaoTest" name="getShareholderByTypeTest" time="0"/>
  <testcase classname="element.bst.elementexploration.test.extention.transactionintelligence.daoImpl.ShareholderDaoTest" name="getCorporateStructuteByScenarios_whenFailedToExecuteQueryExceptionThrrowTest" time="0.002"/>
  <testcase classname="element.bst.elementexploration.test.extention.transactionintelligence.daoImpl.ShareholderDaoTest" name="getGeographyByType_whenExceptionThrowTest" time="0.002"/>
  <testcase classname="element.bst.elementexploration.test.extention.transactionintelligence.daoImpl.ShareholderDaoTest" name="getAssociatedAlerts_whenExceptionThrowTest" time="0"/>
  <testcase classname="element.bst.elementexploration.test.extention.transactionintelligence.daoImpl.ShareholderDaoTest" name="getViewAllCorporateStructure_whenIsTransactionIsFalseTest1" time="0.001"/>
  <testcase classname="element.bst.elementexploration.test.extention.transactionintelligence.daoImpl.ShareholderDaoTest" name="getCorporateStructuteByScenariosTest" time="0.001"/>
  <testcase classname="element.bst.elementexploration.test.extention.transactionintelligence.daoImpl.ShareholderDaoTest" name="getCorporateStructureAggregates_whenFailedToExecuteQueryExceptionThrowTest" time="0.001"/>
  <testcase classname="element.bst.elementexploration.test.extention.transactionintelligence.daoImpl.ShareholderDaoTest" name="getViewAllCorporateStructureWithQueryTest" time="0.001"/>
</testsuite>